v -14.618977 0.014061 -2.603376
v -14.618977 0.013945 -3.003896
v -14.218457 0.017689 -2.202856
v -14.218457 0.017194 -2.603376
v -14.218458 0.017390 -3.003897
v -14.218449 0.002604 -10.613772
v -13.817938 0.022561 -1.401816
v -13.817938 0.004330 -10.613773
v -13.417418 0.028050 -1.001297
v -13.016899 0.032680 -0.200257
v -13.016889 0.032595 -1.001296
v -13.417407 0.025986 -1.401815
v -13.817935 0.001329 -11.815331
v -12.616378 0.038360 0.200263
v -12.616377 0.039035 -0.200257
v -13.817918 0.020458 -2.202859
v -12.215858 0.043816 0.600783
v -12.215896 0.047744 0.200256
v -11.815339 0.049699 1.001303
v -11.815345 0.051794 0.600783
v -11.815337 0.011324 -11.815334
v -11.815339 0.009203 -12.215853
v -11.414819 0.057946 1.401823
v -11.414819 0.058546 1.001303
v -12.178492 0.033470 -6.545909
v -11.014299 0.064790 1.802343
v -11.014299 0.067200 1.401823
v -10.613779 0.074617 2.202863
v -10.613779 0.075875 1.802343
v -10.613779 0.014861 -12.616372
v -10.213260 0.085365 2.603383
v -10.213244 0.086736 2.202861
v 4.764386 2.470373 0.113616
v -9.812740 0.098287 3.003902
v -9.812715 0.099911 2.603380
v -10.213255 0.017914 -12.616367
v -10.213260 0.014090 -13.016891
v -9.412220 0.109953 3.404423
v -9.412233 0.115526 3.003904
v -9.412219 0.016105 -13.417412
v -9.011701 0.124086 3.804942
v -9.011509 0.125135 3.404365
v 4.360596 4.064633 1.860856
v 6.714338 1.582408 2.368814
v -10.613736 0.017653 -12.215831
v -9.011700 0.018863 -13.417412
v -9.011699 0.014834 -13.817931
v -8.611180 0.138166 4.205462
v -8.611187 0.144036 3.804944
v -8.210588 0.134557 5.006488
v -8.210661 0.158467 4.205462
v 6.398503 1.740640 3.207722
v 5.552331 2.383285 4.710052
v 4.871351 3.798264 2.760144
v -9.412210 0.019232 -13.016880
v -8.210658 0.020415 -13.817933
v -8.210658 0.016102 -14.218451
v -7.810141 0.144477 5.407022
v -7.810141 0.154782 5.006503
v 5.453120 3.391911 3.614371
v 4.294061 1.669585 -2.711609
v 4.428186 3.957949 2.348603
v 4.778461 3.873544 3.360134
v -7.810139 0.014081 -14.618971
v -7.409621 0.152071 6.208062
v -7.409675 0.174277 5.406967
v 4.610851 1.944681 4.561513
v -7.810139 0.018453 -14.218450
v -7.409619 0.015695 -14.618971
v -7.409619 0.011990 -15.019490
v -7.009102 0.173499 6.608582
v -7.008330 0.174911 6.207881
v 4.734877 0.934173 6.127044
v 4.796831 1.014037 -3.510995
v -7.009099 0.010241 -15.420011
v -6.608582 0.206883 7.009102
v 4.671236 1.888851 -1.978089
v -7.009100 0.013576 -15.019490
v -6.608578 0.004007 -16.621571
v -6.208062 0.252729 7.810141
v -6.608052 0.208145 6.608525
v 4.029629 1.173185 5.459855
v 5.167682 0.590914 -4.439485
v 3.639811 3.595114 -1.172084
v 3.315155 4.471783 -0.262218
v -6.208058 0.004470 -16.621571
v -6.208058 0.002849 -17.022091
v -5.807086 0.229285 8.610902
v -7.094150 0.233478 4.794635
v 3.678557 3.695522 0.207938
v 3.251598 4.617841 0.993388
v -5.807538 0.003229 -17.022091
v -5.407022 0.197467 9.412220
v -5.407205 0.270400 8.610103
v -6.209042 0.286542 7.009383
v 4.295195 3.966603 2.650567
v 3.176509 2.620555 3.111302
v 4.118156 3.342144 3.463795
v 3.690984 2.253331 4.306478
v 3.686682 4.164902 1.675120
v -5.006503 0.159643 9.812740
v -5.006657 0.206945 9.412055
v -5.807603 0.305204 7.810174
v 3.404416 2.003724 5.006503
v 3.398030 0.644375 6.241029
v 3.831139 0.161464 -9.362370
v 3.653963 0.513737 -6.609464
v 2.559242 1.208281 -4.293895
v -6.861539 0.044630 -13.188438
v -5.807539 0.004731 -16.621571
v -4.605983 0.097878 10.213260
v 3.310369 1.260210 -3.576839
v 3.141078 2.106937 -2.537190
v 3.613509 0.045300 11.286373
v -4.605978 0.006206 -16.621571
v -4.605978 0.004120 -17.022091
v -4.205459 0.062824 11.014346
v -4.606096 0.106142 9.809732
v 2.707825 0.567002 -7.903454
v 2.424181 4.040006 -1.238592
v 2.997731 4.644398 -0.806699
v 2.622656 4.739772 0.126870
v 4.327478 0.125758 9.478342
v 3.003915 0.033206 -13.817934
v 3.280111 0.071482 -11.681657
v 2.635061 0.854882 -6.351769
v 2.070172 5.060154 -0.047815
v 2.393458 4.859207 0.647000
v -3.804941 0.049661 11.414808
v -3.804942 0.060086 11.014286
v 2.228137 3.452194 1.604709
v 2.716067 2.812886 2.348765
v 2.628532 1.533761 4.084589
v 2.687644 0.419214 6.708758
v 1.000673 0.248478 7.814857
v 1.674307 0.708759 -8.738853
v 2.181522 0.950560 -7.405224
v 1.434806 1.815982 -3.683367
v 2.084972 2.905017 -1.860104
v -6.608582 0.012981 -15.420031
v -3.003902 0.043538 11.815339
v 1.400803 1.885310 3.044802
v 2.144136 0.723395 5.660748
v 1.133392 2.180577 -6.915816
v 1.321023 2.302702 -2.802415
v 1.420869 5.121867 -0.569385
v 1.225187 4.326117 0.378174
v 1.696998 3.935927 1.389470
v 1.804787 1.338223 -5.847494
v 0.024526 3.412148 -5.744769
v 0.986824 5.358021 -0.853007
v -2.603383 0.037192 12.215858
v -3.003889 0.050587 11.414746
v -4.205616 0.090893 10.212595
v 1.621544 1.604173 3.330189
v 1.335190 1.809766 -7.412177
v 0.922394 3.215149 -2.141171
v 1.008492 3.149737 2.080910
v 0.590294 2.495516 -6.884423
v 0.357657 2.638002 -3.265721
v 0.122550 5.452542 -1.034722
v -2.603378 0.009115 -16.621571
v 0.271084 3.933978 0.216554
v 0.008790 0.297007 -10.486108
v 0.557020 0.927544 -8.315583
v -0.159131 3.147735 -6.473611
v 0.331826 5.284528 -1.370012
v 0.004517 3.175328 0.928744
v 0.468750 2.628314 2.674102
v -0.491690 1.479517 -7.758457
v -0.710659 2.296924 -6.993035
v -0.259876 3.539292 -5.924202
v -1.200180 4.180680 -4.828228
v -2.202863 0.031648 12.616378
v -2.202863 0.037782 12.215859
v 0.422077 2.416880 -4.751513
v -0.527838 3.749144 -2.422651
v -0.637386 5.017100 -1.515252
v -0.940926 5.858042 -1.015475
v -2.603378 0.011002 -16.221048
v -1.401823 0.027693 13.016898
v -2.603382 0.044328 11.815332
v -0.338581 5.071045 -0.491172
v 0.059638 0.722237 5.154551
v -0.945106 1.993583 -7.397377
v -0.943512 4.057377 -5.244848
v -1.277500 2.903633 0.797023
v -0.903855 2.254951 1.725310
v -0.206744 1.973629 3.624056
v -0.811562 1.746671 3.567493
v -0.952692 0.407663 6.600860
v -1.001302 0.023591 13.417418
v -1.001302 0.027980 13.016898
v -1.401823 0.032808 12.616377
v -1.850577 2.632284 -8.406393
v -1.535312 3.886993 -6.263938
v -1.710794 4.603983 -5.757213
v -1.001297 0.014078 -15.820532
v -1.001297 0.010602 -16.221050
v -0.600782 0.019629 13.817938
v -0.600782 0.023576 13.417418
v -0.716618 3.687777 -4.157839
v -1.161856 5.315539 -1.845109
v -1.363243 5.202288 -0.477104
v -1.313439 1.036391 4.796318
v -1.009690 0.559053 -9.799027
v -2.110948 5.020136 -5.393162
v -2.152633 4.853365 -4.960359
v -2.221430 4.988297 -4.073015
v -1.799167 5.266908 -3.115045
v -0.200262 0.013669 14.618976
v -1.992462 1.560127 2.309238
v -1.893036 0.672361 5.805873
v -2.066781 3.007137 -7.856053
v -2.222617 4.544992 -6.392901
v -1.989476 5.149958 -2.573706
v -2.526367 3.410129 -1.814400
v -1.094719 5.984817 -1.232765
v -2.075456 2.663108 0.629509
v -3.102535 0.080337 -12.792266
v -0.200258 0.016791 -15.420010
v -0.200257 0.013363 -15.820530
v 0.200258 0.009332 15.420016
v -2.093328 4.186118 -6.989789
v -2.474338 4.848711 -3.472776
v -1.849239 1.401268 3.691204
v 0.600778 0.007242 15.820537
v -3.181877 0.825835 4.925995
v -3.184053 0.496529 6.276002
v -1.765159 0.180276 8.480004
v -3.091171 0.866504 -10.191006
v -2.323646 2.310469 -8.810416
v -3.011600 3.084697 -7.498749
v -2.486120 4.792490 -5.458420
v 0.600783 0.020094 -15.019493
v 0.600782 0.016073 -15.420010
v 0.600778 0.008967 15.420016
v -2.841402 4.979952 -4.580586
v -2.917768 4.105431 -3.138261
v -2.408531 3.200310 -0.911205
v -2.696829 2.167243 -0.112171
v 1.001302 0.027073 -14.619013
v 1.001303 0.019319 -15.019490
v -0.200262 0.019082 13.817933
v -3.243647 1.372933 0.792662
v -3.094080 0.988509 3.071326
v -3.804942 0.060086 11.014286
v -2.706707 2.066827 -8.676465
v -3.252496 3.922135 -6.223977
v -3.517858 5.065452 -5.325907
v -2.993106 4.754824 -4.120660
v -3.438500 3.917007 -3.476751
v -3.006694 4.168416 -2.492626
v -2.718018 2.840436 -1.317828
v -3.694048 1.128100 -9.065697
v -3.564859 1.720285 -0.722835
v -4.127076 0.531662 7.678360
v -3.491808 0.217221 8.464596
v -2.907912 0.217071 -11.617045
v 1.802342 0.022065 -14.618970
v 1.001297 0.005652 16.221056
v -3.541753 2.207495 -7.876630
v -4.102152 2.313869 -2.850009
v -3.446136 3.010018 -1.917261
v -3.627590 1.095669 4.252397
v -4.398540 0.822748 4.678005
v -4.205616 0.090893 10.212595
v -4.690269 0.945294 -8.888865
v 1.802342 0.028356 -14.218460
v -4.265715 3.778523 -6.762417
v -4.690862 2.125905 -3.947478
v -4.831984 2.087476 -3.351371
v -4.283014 1.750984 -1.407151
v -4.467507 1.043559 -0.144309
v -4.606096 0.106142 9.809732
v -4.605983 0.097878 10.213260
v -6.861539 0.044630 -13.188438
v -5.603104 0.178953 -11.511347
v -5.258553 3.391746 -6.141691
v -4.206482 4.929002 -5.787870
v -4.221511 2.929755 -4.425024
v 3.003915 0.033206 -13.817934
v 3.003900 0.024413 -14.218451
v 3.404416 0.004181 16.221056
v 1.001297 0.006683 15.820534
v -5.006657 0.206945 9.412055
v -5.006503 0.159643 9.812740
v -4.957820 2.139559 -7.421459
v -4.212224 0.755518 1.791846
v -5.487834 0.435920 4.645234
v -4.358857 0.636625 6.576359
v -5.407205 0.270400 8.610103
v 3.404416 0.005763 15.820537
v -5.407022 0.197467 9.412220
v -5.052586 0.546760 -9.754130
v -4.880416 1.274723 -1.791691
v -5.744596 0.696339 -1.098801
v -5.807603 0.305204 7.810174
v -5.807086 0.229285 8.610902
v -5.678141 0.920092 -8.523417
v -6.254966 1.872111 -7.351774
v -6.561619 1.475591 -5.814678
v -5.919170 1.229417 -4.036535
v -6.289681 0.866318 -3.018425
v -6.798226 0.538361 -1.905399
v -6.209042 0.286542 7.009383
v -6.208062 0.252729 7.810141
v -4.726675 0.500001 6.041008
v -6.608052 0.208145 6.608525
v 4.605980 0.026266 -13.417412
v 4.605973 0.020772 -13.817929
v 5.006496 0.004780 15.820537
v -6.608582 0.206883 7.009102
v -7.325089 1.273610 -7.680078
v -7.008330 0.174911 6.207881
v 5.006496 0.005704 15.420016
v -7.009102 0.173499 6.608582
v -6.689005 0.378700 -9.525439
v -7.068480 1.050179 -6.620040
v -7.409675 0.174277 5.406967
v 5.407017 0.021318 -13.417412
v -7.409621 0.152071 6.208062
v -7.928323 0.340183 -9.091814
v -7.443418 0.719807 -8.328774
v -7.758791 0.881052 -7.656897
v -7.094150 0.233478 4.794635
v -7.810141 0.154782 5.006503
v -7.810141 0.144477 5.407022
v -8.057031 0.575346 -5.702260
v 5.407011 0.024119 -13.016881
v 6.208055 0.004852 15.420016
v 0.200259 0.014314 14.618977
v -7.696301 0.531812 -4.622766
v -6.633650 0.356111 1.037853
v -8.210661 0.158467 4.205462
v -8.210588 0.134557 5.006488
v -8.611187 0.144036 3.804944
v -8.611180 0.138166 4.205462
v -8.957371 0.322452 -7.674129
v -9.144268 0.249377 -5.685642
v -9.011509 0.125135 3.404365
v -9.011701 0.124086 3.804942
v 6.608574 0.023631 -12.616367
v 6.608576 0.020052 -13.016891
v -8.908280 0.112374 -9.953649
v -9.412233 0.115526 3.003904
v -9.412220 0.109953 3.404423
v -10.213255 0.017914 -12.616367
v -9.661384 0.160764 -7.507528
v -8.961944 0.248487 -3.175248
v 9.412305 0.060640 -8.210743
v -9.812715 0.099911 2.603380
v -9.812740 0.098287 3.003902
v -10.213244 0.086736 2.202861
v -10.213260 0.085365 2.603383
v 7.810135 0.022272 -12.215853
v 7.810133 0.018166 -12.616370
v -10.613779 0.014861 -12.616372
v -10.613779 0.075875 1.802343
v -10.613779 0.074617 2.202863
v -11.014299 0.067200 1.401823
v -11.014299 0.064790 1.802343
v -9.815569 0.132561 -1.326837
v -11.414819 0.058546 1.001303
v -11.414819 0.057946 1.401823
v 10.612231 0.021273 -6.207084
v 9.011699 0.036377 -10.213243
v 9.011693 0.015864 -12.215853
v -11.815339 0.009203 -12.215853
v -11.815337 0.011324 -11.815334
v 9.412209 0.033429 -10.213259
v 9.812734 0.002416 15.019497
v 3.613509 0.045300 11.286373
v -10.613736 0.017653 -12.215831
v 9.812546 0.052360 -7.409522
v 9.812731 0.049123 -8.210653
v -11.815345 0.051794 0.600783
v -11.815339 0.049699 1.001303
v 10.213256 0.053249 -7.009096
v 10.213254 0.050285 -7.409615
v 9.812733 0.002984 14.618976
v 10.613773 0.044787 -7.009094
v 11.014293 0.001531 14.618977
v 6.208121 0.009325 15.019507
v 11.014293 0.041809 -6.208055
v -12.215896 0.047744 0.200256
v -12.215858 0.043816 0.600783
v 11.014329 0.048246 -5.807566
v -13.817935 0.001329 -11.815331
v 12.215864 0.033047 -5.407022
v 12.215856 0.030447 -5.807531
v 12.616372 0.000820 14.218457
v 12.616372 0.001123 13.817938
v 13.016898 0.040575 -1.001297
v 13.016868 0.024771 -5.407024
v 13.417412 0.000692 13.817938
v 11.014293 0.002096 14.218457
v 13.417389 0.034508 -0.200256
v 13.417411 0.033192 -1.001297
v 13.417412 0.000930 13.417418
v -12.178492 0.033470 -6.545909
v 13.817865 0.026579 1.401827
v 13.817931 0.029803 -0.200257
v 14.218451 0.000372 13.817938
v 14.218451 0.000502 13.417418
v 14.218451 0.000836 12.616378
v 14.218451 0.023511 3.003903
v 14.218454 0.025141 1.401823
v 14.618971 0.000591 12.616378
v 14.618971 0.001805 11.414819
v 14.618971 0.003720 10.213260
v 14.618969 0.017009 4.205463
v 14.618971 0.018948 3.003902
v 15.019490 0.001320 11.414819
v 15.019490 0.002517 10.213260
v 15.019490 0.003807 9.412220
v 15.019490 0.005553 8.671324
v 15.019490 0.007239 7.810141
v 15.019488 0.012874 4.205462
v 15.420011 0.002661 9.412220
v 15.420011 0.005546 7.810141
v -12.178492 0.033470 -6.545909
v -13.817935 0.001329 -11.815331
v -12.215858 0.043816 0.600783
v -12.215896 0.047744 0.200256
v -11.815339 0.049699 1.001303
v -11.815345 0.051794 0.600783
v -10.613736 0.017653 -12.215831
v -11.815337 0.011324 -11.815334
v -11.815339 0.009203 -12.215853
v -11.414819 0.057946 1.401823
v -11.414819 0.058546 1.001303
v -11.014299 0.064790 1.802343
v -11.014299 0.067200 1.401823
v -10.613779 0.074617 2.202863
v -10.613779 0.075875 1.802343
v -10.613779 0.014861 -12.616372
v -10.213260 0.085365 2.603383
v -10.213244 0.086736 2.202861
v -9.812740 0.098287 3.003902
v -9.812715 0.099911 2.603380
v -10.213255 0.017914 -12.616367
v -9.412220 0.109953 3.404423
v -9.412233 0.115526 3.003904
v -9.011701 0.124086 3.804942
v -9.011509 0.125135 3.404365
v -8.611180 0.138166 4.205462
v -8.611187 0.144036 3.804944
v -8.210588 0.134557 5.006488
v -8.210661 0.158467 4.205462
v -7.810141 0.144477 5.407022
v -7.810141 0.154782 5.006503
v -7.094150 0.233478 4.794635
v -7.409621 0.152071 6.208062
v -7.409675 0.174277 5.406967
v -7.009102 0.173499 6.608582
v -7.008330 0.174911 6.207881
v -6.608582 0.206883 7.009102
v -6.608052 0.208145 6.608525
v -6.208062 0.252729 7.810141
v -6.209042 0.286542 7.009383
v -5.807086 0.229285 8.610902
v -5.807603 0.305204 7.810174
v -5.407022 0.197467 9.412220
v -5.407205 0.270400 8.610103
v -5.006503 0.159643 9.812740
v -5.006657 0.206945 9.412055
v -6.861539 0.044630 -13.188438
v -4.605983 0.097878 10.213260
v -4.606096 0.106142 9.809732
v -4.205616 0.090893 10.212595
v -3.804942 0.060086 11.014286
v 3.003915 0.033206 -13.817934
v 3.613509 0.045300 11.286373
v 10.612231 0.021273 -6.207084
v 9.412305 0.060640 -8.210743
v 9.011699 0.036377 -10.213243
v 6.608574 0.023631 -12.616367
v 7.810135 0.022272 -12.215853
v 7.810133 0.018166 -12.616370
v 9.812546 0.052360 -7.409522
v 9.011693 0.015864 -12.215853
v 9.812731 0.049123 -8.210653
v 10.213256 0.053249 -7.009096
v 10.213254 0.050285 -7.409615
v 9.812733 0.002984 14.618976
v 6.208121 0.009325 15.019507
v 10.613773 0.044787 -7.009094
v 11.014329 0.048246 -5.807566
v 11.014293 0.041809 -6.208055
v 12.215864 0.033047 -5.407022
v 12.215856 0.030447 -5.807531
v 13.417389 0.034508 -0.200256
v 13.016898 0.040575 -1.001297
v 13.016868 0.024771 -5.407024
v 11.014293 0.002096 14.218457
v 13.817865 0.026579 1.401827
v 13.417411 0.033192 -1.001297
v 14.218451 0.023511 3.003903
v 14.218454 0.025141 1.401823
v 13.817931 0.029803 -0.200257
v 15.019490 0.005553 8.671324
v 14.618971 0.000591 12.616378
v 14.618971 0.001805 11.414819
v 14.618971 0.003720 10.213260
v 14.618969 0.017009 4.205463
v 14.618971 0.018948 3.003902
v 15.019490 0.002517 10.213260
v 15.019490 0.003807 9.412220
v 15.019490 0.007239 7.810141
v 15.019488 0.012874 4.205462
v -9.412210 0.019232 -13.016880
v -3.102535 0.080337 -12.792266
v -4.205459 0.062824 11.014346
v -3.003889 0.050587 11.414746
v 5.407011 0.024119 -13.016881
v 9.412209 0.033429 -10.213259
v 14.218451 0.000836 12.616378
v 4.827264 2.317236 -0.879427
v 5.186471 2.081256 -1.379012
v 5.814951 0.932479 -3.339426
v 6.610349 0.332261 -4.799944
v 5.418145 0.403037 7.187343
v 5.270133 0.853929 6.447777
v 6.057632 1.431237 5.841830
v 6.147278 2.730497 4.174917
v 5.652695 2.658468 1.585935
v 6.090145 2.212487 1.099041
v 6.157942 1.132197 -1.619203
v 5.663703 1.450269 -2.155962
v 6.351692 0.174057 -7.851732
v 9.696563 0.087666 8.354330
v 5.658411 0.170669 8.282099
v 6.607784 0.455893 6.837162
v 6.565889 1.487513 5.017042
v 6.575827 2.114965 1.317139
v 6.017214 1.792563 0.556537
v 6.231180 1.312146 -0.345716
v 6.617227 0.713028 -2.641509
v 7.727407 0.249135 7.166482
v 7.582411 0.795111 5.336602
v 7.359764 1.135527 1.829390
v 7.176915 1.548245 0.578923
v 7.893936 0.610986 -0.842508
v 7.668670 1.025069 3.744575
v 7.785945 0.458953 -3.378701
v 7.786113 0.283327 -4.641836
v 10.612231 0.021273 -6.207084
v 9.412305 0.060640 -8.210743
v 9.011699 0.036377 -10.213243
v 6.608574 0.023631 -12.616367
v 7.810135 0.022272 -12.215853
v 7.810133 0.018166 -12.616370
v 8.535374 0.597041 0.867568
v 8.889307 0.251096 -2.974893
v 9.082953 0.613645 3.970832
v 8.571533 0.591913 3.106658
v 9.708101 0.272033 5.159281
v 8.423589 0.600560 4.646969
v 9.703300 0.240253 0.156508
v 9.812546 0.052360 -7.409522
v 9.011693 0.015864 -12.215853
v 9.812731 0.049123 -8.210653
v 10.213256 0.053249 -7.009096
v 10.213254 0.050285 -7.409615
v 9.812733 0.002984 14.618976
v 6.208121 0.009325 15.019507
v 11.177325 0.082423 -3.439915
v 10.613773 0.044787 -7.009094
v 12.409537 0.025406 8.624957
v 11.182118 0.104070 5.884014
v 11.014329 0.048246 -5.807566
v 11.014293 0.041809 -6.208055
v 10.869617 0.155339 3.857571
v 12.215864 0.033047 -5.407022
v 12.215856 0.030447 -5.807531
v 13.417389 0.034508 -0.200256
v 13.016898 0.040575 -1.001297
v 13.016868 0.024771 -5.407024
v 11.014293 0.002096 14.218457
v 13.817865 0.026579 1.401827
v 13.417411 0.033192 -1.001297
v 14.218451 0.023511 3.003903
v 14.218454 0.025141 1.401823
v 13.817931 0.029803 -0.200257
v 15.019490 0.005553 8.671324
v 14.618971 0.000591 12.616378
v 14.618971 0.001805 11.414819
v 14.618971 0.003720 10.213260
v 14.618969 0.017009 4.205463
v 14.618971 0.018948 3.003902
v 15.019490 0.002517 10.213260
v 15.019490 0.003807 9.412220
v 15.019490 0.007239 7.810141
v 15.019488 0.012874 4.205462
v -9.412210 0.019232 -13.016880
v -7.671220 0.557535 -3.848282
v -5.494811 2.673838 -6.906772
v -3.102535 0.080337 -12.792266
v -4.205459 0.062824 11.014346
v -1.400974 5.250038 -1.795889
v -2.176560 1.005306 -9.579288
v -3.003889 0.050587 11.414746
v 1.470915 0.173479 -11.168381
v 1.406771 3.643303 1.933871
v 2.228685 0.287159 -9.602962
v 2.851940 1.317161 4.936703
v 2.957037 4.590281 1.085927
v 4.539580 0.325963 8.133956
v 4.485636 3.587245 1.180741
v 5.407011 0.024119 -13.016881
v 7.498071 1.075736 4.218867
v 8.590892 0.355764 6.260835
v 9.412209 0.033429 -10.213259
v 14.218451 0.000836 12.616378
v 2.063392 0.031228 12.799865
v -2.068449 0.148523 9.198545
v -5.378148 0.398939 6.237525
v 9.484709 0.125823 -5.582604
v -5.709382 0.389371 5.523656
v -6.881070 0.290222 3.056319
v -6.955973 0.047756 -13.039190
v -6.396742 0.049045 -13.139452
v 0.824478 0.041695 11.732074
v -6.098503 0.358958 4.702031
v -10.260497 0.018117 -12.451333
v -11.815339 0.009426 -12.173635
v 4.506894 0.010738 14.906091
v -11.640390 0.046454 -7.106640
v -9.770999 0.140714 -3.113453
v 0.605066 0.044830 11.542344
v -10.403991 0.017790 -12.425605
v -11.815339 0.009426 -12.173635
v 1.753627 0.028872 -14.204294
v -4.897302 0.534049 6.584060
v 0.381479 0.047882 11.349072
v 9.465775 0.017773 11.660398
v -2.386647 0.157513 8.921227
v 10.346440 0.143676 -3.271044
v -3.944059 0.524844 7.406198
v 13.462958 0.021403 6.517814
v 14.064600 0.012817 8.654360
v 5.188871 0.044041 -12.217681
v 8.262178 0.103260 -8.075832
v 13.218278 0.017469 9.206339
v -6.396742 0.049045 -13.139452
v 0.381479 0.047882 11.349072
v 7.537127 0.063955 -9.272122
v 6.590842 0.051204 -10.833459
v 4.639627 0.041207 -12.535133
v 9.022971 0.078264 -6.820569
v -4.110739 0.060968 -13.547910
v 9.811720 0.128054 -4.705331
v 0.381479 0.047882 11.349072
v 12.860397 0.020343 9.439452
v 1.745338 0.032457 12.526454
v -11.494341 0.068069 -6.807278
v -12.075614 0.027196 -8.038687
v -7.442622 0.277530 1.842965
v -8.487587 0.032939 -12.766951
v 13.287804 0.024486 5.895813
v 13.923243 0.014870 8.152385
v -8.451124 0.228422 -0.312830
v -6.396742 0.049045 -13.139452
v 8.569765 0.096061 -7.568318
v 13.083272 0.025967 5.169457
v -11.578858 0.010866 -12.215848
v 10.709172 0.132550 -2.297687
v -6.773214 0.054058 -13.070729
v -11.815339 0.009426 -12.173635
v -4.778592 0.557205 6.674596
v -4.244726 0.584940 7.118996
v 9.409502 0.114738 -5.784181
v -5.444684 0.397699 6.093522
v 0.448954 0.034242 -14.373146
v 0.345530 0.035585 -14.327108
v 1.085046 0.039003 11.956890
v 13.184703 0.025293 5.529667
v 11.738769 0.019615 10.173244
v 1.214823 0.027415 -14.512243
v 1.265700 0.027497 -14.486802
v 1.309338 0.036652 12.150422
v 12.797376 0.020139 9.480732
v 12.988513 0.019222 9.356031
v -2.886118 0.204261 8.470001
v 13.524616 0.020052 6.736764
v -11.882152 0.030475 -7.619701
v -10.613754 0.016452 -12.388170
v -3.422661 0.279977 7.972856
v 11.086459 0.103955 -1.284963
v 1.529427 0.034557 12.340233
v -9.371491 0.192869 -2.288427
v 3.050653 0.039683 -13.456435
v 12.363285 0.090106 2.613420
v 12.078830 0.019881 9.950754
v 11.819147 0.093712 0.680609
v 6.057707 0.043049 -11.713307
v -6.822351 0.039727 -13.534153
v 9.702191 0.177610 6.795625
v -5.424183 0.421478 5.673800
v 5.375150 0.020875 13.821026
v -7.232182 0.034402 -13.590891
v -2.324479 0.121718 9.805120
v -6.970504 0.266405 3.785926
v -11.008000 0.092664 -6.993076
v -8.337066 0.034022 -12.805967
v 9.003345 0.144509 7.936163
v -6.209519 0.344967 4.712357
v 8.623962 0.095276 8.578877
v 11.075698 0.106505 -1.029753
v -9.361002 0.087229 -10.554155
v 2.520608 0.035379 12.353451
v -9.960535 0.115856 -0.040143
v 0.896896 0.044875 11.517514
v -7.003583 0.037131 -13.559185
v -10.463449 0.106395 -0.702333
v -10.097883 0.112512 -0.220095
v -12.189934 0.037837 -4.482203
v 5.375150 0.020875 13.821026
v -2.584467 0.074846 -12.942904
v -2.949925 0.136883 9.321123
v 0.088004 0.059938 11.091462
v -3.988546 0.526501 7.472354
v 10.291059 0.147759 -3.259789
v 4.947578 0.061269 -11.254457
v 4.292980 0.056920 -11.966094
v 7.919283 0.115967 -8.035611
v -5.341052 0.054551 -13.328081
v 3.223582 0.063648 -12.118893
v -10.227040 0.110126 -0.390208
v -3.470168 0.073274 -13.067804
v 3.836770 0.059086 -12.031116
v 11.006742 0.132842 4.746776
v 1.780637 0.038421 11.973688
v -9.493340 0.129585 0.569203
v -9.814496 0.120291 0.150164
v -7.931625 0.025424 -13.687737
v -8.027267 0.220740 2.424819
v -10.348796 0.107883 -0.550581
v -4.598608 0.590952 6.579788
v -10.326613 0.078152 -8.475668
v -9.659279 0.125960 0.351301
v -4.150405 0.566088 7.209092
v 5.375150 0.020875 13.821026
v -2.378907 0.074752 -12.913810
v 8.314965 0.105021 -7.600875
v 11.105359 0.135448 4.587393
v -11.296304 0.076417 -6.382801
v -5.933677 0.371841 5.050058
v -4.264966 0.594106 7.022763
v -4.559322 0.598694 6.623277
v 9.791171 0.130795 -4.666782
v 1.522813 0.040093 11.840799
v -5.107812 0.445697 6.068883
v -2.720593 0.075380 -12.962280
v 10.485133 0.183491 5.541326
v 10.666889 0.137078 -2.194521
v 2.229743 0.035787 12.204909
v -5.051965 0.449539 6.139132
v 1.196475 0.042176 11.672627
v 5.938241 0.066782 -10.177115
v -8.343130 0.034337 -12.792626
v -6.890152 0.038609 -13.543487
v -11.709064 0.053156 -5.509068
v -10.571275 0.105858 -0.846055
v 8.372903 0.078447 8.992336
v 7.737564 0.035973 10.038557
v 9.248451 0.196322 7.505867
v 8.769613 0.106719 8.337749
v 2.015355 0.037062 12.094513
v -2.770336 0.127924 9.572360
vn 0.7758 0.5694 -0.2718
vn -0.5732 0.6561 0.4909
vn -0.5695 0.6469 0.5071
vn -0.6417 0.6108 0.4639
vn 0.5610 0.6800 0.4721
vn 0.2067 0.9721 -0.1111
vn -0.2787 0.5811 0.7646
vn -0.7713 0.6299 -0.0911
vn -0.6817 0.4936 0.5400
vn 0.1051 0.9761 -0.1904
vn 0.2789 0.9481 -0.1525
vn 0.0268 0.5643 -0.8252
vn 0.3909 0.9183 0.0632
vn 0.5549 0.6054 0.5706
vn 0.6623 0.6393 -0.3907
vn 0.4963 0.8574 -0.1358
vn 0.1718 0.7774 -0.6051
vn -0.1568 0.5100 -0.8458
vn 0.2925 0.9561 0.0198
vn -0.3697 0.5709 0.7330
vn -0.3537 0.7614 0.5432
vn 0.4350 0.8900 -0.1368
vn 0.1730 0.7602 -0.6262
vn -0.0503 0.4912 -0.8696
vn 0.1599 0.5425 0.8247
vn -0.1316 0.7076 0.6943
vn -0.0881 0.6747 0.7328
vn 0.3317 0.5469 -0.7687
vn -0.4547 0.7765 0.4361
vn 0.3997 0.7014 0.5901
vn 0.4202 0.4837 0.7677
vn 0.0131 0.9019 -0.4317
vn 0.5715 0.8164 -0.0825
vn 0.4623 0.8001 -0.3823
vn -0.0032 0.7661 0.6427
vn -0.3313 0.5048 0.7971
vn -0.0470 0.9804 0.1912
vn 0.6297 0.7515 0.1968
vn 0.6875 0.6097 -0.3944
vn 0.7270 0.6083 0.3185
vn 0.5311 0.4248 -0.7332
vn -0.3831 0.6701 0.6358
vn -0.4014 0.7760 0.4866
vn 0.2080 0.6330 0.7457
vn 0.2498 0.7794 0.5745
vn 0.0037 0.7138 -0.7003
vn 0.3676 0.6457 -0.6693
vn -0.5562 0.6643 0.4994
vn 0.5733 0.7133 -0.4032
vn 0.6762 0.6379 0.3686
vn -0.2627 0.6211 -0.7384
vn -0.1545 0.8413 -0.5180
vn -0.4760 0.7951 0.3758
vn -0.1901 0.6790 -0.7091
vn 0.7363 0.6758 -0.0343
vn -0.3606 0.9103 0.2035
vn 0.7664 0.5422 -0.3445
vn 0.7016 0.5141 -0.4934
vn 0.5399 0.8374 0.0848
vn -0.4063 0.8704 0.2781
vn 0.6810 0.5206 -0.5150
vn -0.3425 0.6998 0.6269
vn 0.0737 0.9633 -0.2581
vn 0.0332 0.5101 -0.8595
vn 0.6932 0.6741 -0.2551
vn 0.6270 0.5461 -0.5555
vn 0.4371 0.7924 -0.4254
vn -0.3754 0.9156 0.1442
vn 0.2195 0.8280 -0.5160
vn -0.5872 0.7209 -0.3682
vn -0.2494 0.5698 -0.7831
vn -0.4426 0.8281 -0.3441
vn -0.8591 0.4363 0.2678
vn -0.8012 0.4896 0.3439
vn -0.1944 0.7167 -0.6697
vn -0.5023 0.6887 -0.5229
vn -0.5259 0.7737 -0.3532
vn -0.3663 0.6784 0.6369
vn -0.7225 0.6738 0.1548
vn -0.2236 0.9564 -0.1878
vn -0.0346 0.9196 0.3913
vn -0.5330 0.7153 -0.4519
vn -0.5097 0.5813 -0.6343
vn -0.7840 0.6188 0.0491
vn -0.6484 0.5707 0.5039
vn 0.3438 0.6281 -0.6980
vn -0.8326 0.5394 0.1259
vn -0.8523 0.4531 0.2613
vn -0.3909 0.6445 0.6571
vn -0.5005 0.7778 0.3803
vn -0.5912 0.4940 0.6375
vn -0.5391 0.5985 0.5926
vn -0.0879 0.9033 0.4200
vn -0.0185 0.9935 -0.1125
vn -0.8279 0.5496 0.1114
vn -0.7108 0.6125 0.3457
vn -0.3699 0.8952 -0.2483
vn -0.5872 0.5406 -0.6025
vn -0.6465 0.6316 0.4278
vn -0.4910 0.7887 0.3701
vn 0.0531 0.7200 -0.6920
vn -0.5833 0.8077 -0.0860
vn -0.5219 0.7391 0.4259
vn -0.5342 0.7655 0.3588
vn -0.1237 0.9783 -0.1660
vn -0.1561 0.9204 -0.3585
vn -0.1839 0.7166 -0.6728
vn -0.8221 0.5193 -0.2334
vn -0.3578 0.8864 0.2937
vn 0.1454 0.8017 -0.5798
vn -0.3849 0.7948 -0.4692
vn -0.5338 0.7920 0.2962
vn -0.3307 0.9205 0.2080
vn -0.5186 0.8464 -0.1207
vn -0.4780 0.8299 0.2876
vn -0.0896 0.9849 -0.1481
vn -0.4202 0.8976 0.1334
vn -0.1857 0.9782 0.0931
vn -0.3409 0.9100 -0.2361
vn -0.3858 0.8395 -0.3826
vn -0.2828 0.9499 0.1328
vn -0.2447 0.9693 -0.0243
vn -0.2020 0.9793 0.0150
vn -0.2259 0.9740 0.0168
vn 0.2306 0.9638 -0.1340
vn 0.3397 0.9281 0.1525
vn 0.5349 0.8225 0.1933
vn 0.5016 0.8580 -0.1107
vn 0.4677 0.8839 0.0094
vn 0.1352 0.9439 0.3012
vn 0.1037 0.9794 -0.1731
vn 0.1945 0.8842 -0.4247
vn 0.1736 0.7673 -0.6173
vn 0.3431 0.8590 -0.3800
vn 0.7555 0.6222 0.2053
vn 0.6679 0.5583 0.4921
vn 0.4050 0.7994 0.4438
vn 0.1020 0.9611 0.2567
vn 0.4056 0.8952 -0.1848
vn 0.6457 0.7482 0.1528
vn 0.5757 0.6415 -0.5070
vn 0.0831 0.9368 -0.3398
vn 0.6841 0.6963 -0.2172
vn 0.3604 0.8262 -0.4330
vn 0.7719 0.6111 0.1754
vn 0.7779 0.5289 -0.3392
vn 0.1094 0.8583 0.5014
vn 0.0976 0.9934 -0.0598
vn 0.7097 0.6784 0.1898
vn 0.6011 0.7947 -0.0845
vn 0.7300 0.6813 -0.0536
vn -0.0481 0.7537 0.6555
vn 0.2900 0.8412 -0.4563
vn 0.5838 0.8118 -0.0115
vn -0.4054 0.6540 0.6387
vn -0.4208 0.7138 0.5598
vn 0.0684 0.9901 -0.1223
vn 0.1423 0.9807 -0.1341
vn 0.3732 0.8186 -0.4366
vn 0.3842 0.9215 -0.0561
vn -0.1179 0.3293 0.9368
vn -0.2027 0.8153 0.5423
vn 0.2456 0.9208 0.3030
vn 0.5023 0.5985 -0.6242
vn -0.5169 0.7296 0.4477
vn 0.2461 0.6509 0.7182
vn 0.1681 0.9206 -0.3524
vn 0.2712 0.8750 -0.4010
vn 0.8079 0.5412 -0.2332
vn 0.6935 0.5819 0.4248
vn 0.6147 0.6567 -0.4369
vn 0.6269 0.7710 0.1122
vn -0.1487 0.8706 0.4691
vn 0.2165 0.9586 -0.1851
vn 0.2035 0.7751 -0.5981
vn 0.3341 0.6328 0.6985
vn -0.1415 0.9587 0.2466
vn 0.4390 0.5230 -0.7306
vn 0.0819 0.8534 0.5148
vn -0.5626 0.6906 0.4544
vn -0.5750 0.7442 0.3399
vn 0.2760 0.9473 -0.1628
vn 0.2837 0.8882 -0.3615
vn 0.3015 0.9497 -0.0852
vn 0.0624 0.8847 0.4620
vn -0.5189 0.7005 0.4900
vn -0.1831 0.8404 0.5101
vn 0.3206 0.9160 -0.2412
vn 0.3619 0.8834 -0.2978
vn 0.2783 0.8555 -0.4367
vn 0.0426 0.5538 -0.8315
vn 0.5355 0.5986 -0.5958
vn 0.4969 0.8676 0.0197
vn -0.3279 0.5576 0.7626
vn -0.3931 0.8613 0.3220
vn -0.0885 0.9434 0.3197
vn 0.6633 0.6504 -0.3702
vn 0.6914 0.6829 -0.2356
vn 0.5919 0.7708 0.2358
vn 0.4172 0.8999 -0.1273
vn -0.2287 0.8926 0.3886
vn 0.0643 0.9668 0.2473
vn 0.6947 0.6824 -0.2274
vn 0.3378 0.6446 -0.6859
vn -0.3715 0.7473 0.5509
vn -0.4523 0.7407 0.4968
vn -0.0903 0.9247 0.3697
vn 0.0411 0.9949 -0.0921
vn -0.0989 0.7532 -0.6503
vn 0.6420 0.3807 -0.6655
vn -0.7882 0.6083 -0.0933
vn 0.0247 0.9917 -0.1265
vn 0.4378 0.7965 -0.4171
vn 0.4250 0.7789 -0.4612
vn -0.4003 0.7773 0.4853
vn 0.2797 0.6860 0.6717
vn 0.1259 0.9437 -0.3059
vn 0.0326 0.6316 -0.7746
vn 0.5803 0.8088 -0.0952
vn 0.4828 0.7400 -0.4683
vn -0.4028 0.8374 0.3696
vn 0.2500 0.7705 0.5864
vn -0.0367 0.9815 0.1878
vn 0.0830 0.5976 -0.7975
vn 0.3527 0.5645 -0.7463
vn 0.0407 0.3591 -0.9324
vn 0.2665 0.6082 0.7477
vn 0.0501 0.9556 -0.2903
vn 0.2191 0.8673 -0.4469
vn -0.4929 0.6633 -0.5631
vn 0.4870 0.8578 -0.1641
vn 0.5964 0.7916 0.1331
vn 0.7264 0.6837 -0.0703
vn 0.7379 0.6669 -0.1039
vn 0.1959 0.5523 -0.8103
vn -0.2017 0.5635 0.8011
vn -0.2233 0.7545 0.6171
vn -0.3234 0.7042 0.6321
vn 0.0592 0.9660 0.2516
vn 0.4812 0.7468 -0.4590
vn 0.2555 0.6964 -0.6706
vn 0.2516 0.6985 -0.6699
vn 0.0742 0.4856 0.8710
vn -0.4299 0.8568 0.2848
vn 0.0601 0.8534 0.5178
vn 0.1071 0.9141 0.3911
vn 0.6986 0.5190 -0.4925
vn -0.3204 0.6567 -0.6827
vn -0.2440 0.8795 0.4087
vn 0.2364 0.6060 -0.7595
vn 0.7001 0.6874 -0.1932
vn 0.8050 0.3629 -0.4693
vn -0.8900 0.4355 0.1347
vn -0.3117 0.4517 0.8359
vn -0.2255 0.8092 0.5425
vn -0.2977 0.9444 0.1394
vn 0.0188 0.9928 -0.1186
vn -0.0601 0.8139 -0.5779
vn -0.8254 0.5023 0.2577
vn -0.8810 0.4580 -0.1185
vn -0.8664 0.3828 0.3208
vn 0.2052 0.9004 -0.3837
vn 0.4305 0.4937 -0.7556
vn -0.6348 0.6311 0.4458
vn -0.0811 0.9341 0.3477
vn -0.0869 0.9520 0.2934
vn -0.5085 0.6725 -0.5378
vn -0.8779 0.4496 -0.1648
vn -0.3133 0.5151 0.7978
vn -0.3533 0.9184 0.1781
vn -0.5854 0.7467 -0.3159
vn -0.6222 0.5951 -0.5086
vn 0.0657 0.6258 -0.7772
vn -0.5924 0.4940 0.6364
vn -0.8347 0.5251 -0.1662
vn -0.3918 0.9027 0.1780
vn -0.4335 0.6942 -0.5746
vn 0.2885 0.6388 -0.7132
vn 0.3044 0.6065 -0.7345
vn -0.5320 0.8341 0.1457
vn -0.3057 0.8511 -0.4269
vn -0.2272 0.9147 -0.3343
vn -0.2470 0.7330 -0.6338
vn -0.7670 0.6385 0.0629
vn -0.3852 0.9041 0.1853
vn -0.2173 0.9760 0.0122
vn -0.0216 0.9799 -0.1983
vn -0.1662 0.9203 -0.3542
vn -0.2404 0.7309 -0.6387
vn -0.2916 0.4603 -0.8385
vn -0.7915 0.5927 -0.1492
vn -0.3601 0.8354 0.4154
vn -0.3346 0.9424 -0.0018
vn -0.5905 0.5031 -0.6310
vn -0.5935 0.8017 -0.0710
vn -0.2545 0.7268 -0.6379
vn -0.6517 0.5350 0.5377
vn -0.6357 0.7707 0.0435
vn -0.2120 0.9622 0.1711
vn -0.1647 0.5934 -0.7878
vn -0.5747 0.7564 0.3124
vn -0.2856 0.9578 0.0337
vn -0.1443 0.9242 -0.3537
vn -0.7197 0.6939 -0.0207
vn -0.7092 0.7008 0.0762
vn -0.3619 0.9260 0.1075
vn -0.2014 0.9769 0.0718
vn -0.2393 0.7596 -0.6048
vn -0.3598 0.9328 -0.0193
vn -0.2967 0.9442 0.1426
vn -0.1544 0.9202 -0.3597
vn -0.6305 0.7145 0.3032
vn -0.4088 0.8961 0.1727
vn -0.0869 0.9831 -0.1611
vn -0.6140 0.6521 -0.4447
vn -0.3873 0.9201 0.0588
vn -0.1730 0.9824 0.0705
vn -0.1463 0.9848 -0.0939
vn -0.2871 0.9579 0.0082
vn -0.2204 0.9753 0.0151
vn -0.2440 0.9652 -0.0942
vn 0.0000 0.0000 1.0000
vn 0.0039 1.0000 0.0000
vn 0.9917 0.0000 -0.1283
vn 0.0000 1.0000 0.0000
vn 0.2059 0.9366 -0.2835
vn -0.1821 0.9458 0.2689
vn -0.2906 0.6543 0.6981
vn -0.6484 0.6655 0.3698
vn 0.1104 0.9852 0.1314
vn 0.2644 0.8116 -0.5210
vn 0.6438 0.6065 -0.4666
vn 0.7378 0.6726 -0.0570
vn 0.3530 0.5655 -0.7454
vn -0.2372 0.8075 0.5400
vn 0.1410 0.9894 0.0337
vn 0.3887 0.9098 0.1451
vn 0.7004 0.6914 0.1770
vn 0.1592 0.8101 -0.5642
vn 0.1114 0.9768 0.1829
vn -0.2003 0.8182 0.5389
vn -0.1122 0.5890 0.8003
vn 0.6547 0.6700 -0.3499
vn 0.6443 0.6062 -0.4662
vn 0.7974 0.5283 -0.2917
vn 0.6438 0.6157 -0.4544
vn 0.7193 0.6927 0.0518
vn 0.4325 0.8240 -0.3662
vn 0.5386 0.6297 -0.5598
vn 0.2737 0.8220 -0.4994
vn 0.1354 0.9209 -0.3656
vn 0.1657 0.7330 0.6598
vn 0.5333 0.7926 -0.2956
vn 0.6639 0.7255 -0.1814
vn 0.1376 0.9138 -0.3822
vn 0.0105 0.7171 0.6969
vn 0.5428 0.7462 0.3854
vn 0.6118 0.7776 -0.1451
vn 0.0166 0.9788 0.2041
vn 0.5644 0.7237 0.3972
vn 0.3098 0.6026 0.7354
vn 0.5446 0.6873 0.4807
vn 0.4632 0.8735 -0.1501
vn 0.3885 0.9072 -0.1613
vn 0.7483 0.6547 0.1067
vn 0.3344 0.9241 -0.1849
vn 0.5172 0.8385 0.1715
vn 0.2280 0.8618 -0.4532
vn 0.1951 0.9804 -0.0285
vn 0.1135 0.9684 0.2222
vn 0.6286 0.7642 0.1444
vn 0.4687 0.8809 0.0652
vn 0.5904 0.7779 -0.2151
vn 0.1877 0.9792 -0.0777
vn 0.0596 0.9887 -0.1375
vn 0.3095 0.9444 0.1112
vn 0.4133 0.9106 -0.0046
vn 0.2341 0.9404 0.2465
vn 0.1980 0.9720 0.1269
vn 0.1727 0.9670 0.1871
vn 0.3033 0.9310 -0.2029
vn -0.0086 1.0000 -0.0003
vn -0.0069 1.0000 -0.0012
vn -0.0086 1.0000 0.0005
vn -0.0038 1.0000 -0.0019
vn -0.0086 1.0000 -0.0026
vn -0.0043 1.0000 -0.0054
vn -0.0113 0.9999 -0.0052
vn -0.0159 0.9999 -0.0001
vn -0.0234 0.9997 0.0017
vn -0.0125 0.9999 -0.0017
vn -0.0567 0.9888 0.1383
vn -0.0064 0.9999 -0.0095
vn -0.0069 0.9999 -0.0078
vn -0.0048 1.0000 -0.0057
vn -0.0070 0.9999 -0.0101
vn -0.0227 0.9927 0.1186
vn -0.0110 0.9998 -0.0150
vn 0.0046 0.9998 -0.0185
vn -0.0040 0.9999 -0.0109
vn -0.0096 0.9998 -0.0165
vn -0.0040 0.9999 -0.0092
vn -0.0068 0.9999 -0.0083
vn -0.0012 1.0000 -0.0075
vn -0.0007 1.0000 -0.0073
vn -0.0009 1.0000 -0.0040
vn -0.0012 1.0000 -0.0077
vn -0.0015 1.0000 -0.0081
vn -0.0667 0.9807 0.1837
vn -0.0079 0.9999 -0.0151
vn -0.0012 0.9997 0.0260
vn -0.0020 0.9998 0.0176
vn -0.0098 0.9990 0.0433
vn 0.0010 0.9996 -0.0269
vn -0.0015 0.9998 0.0178
vn 0.0201 0.9914 0.1293
vn -0.0006 0.9999 -0.0119
vn 0.2724 0.9489 0.1594
vn -0.0507 0.9703 0.2366
vn -0.0014 0.9999 0.0153
vn 0.0011 0.9999 0.0152
vn 0.1347 0.9887 0.0658
vn 0.0068 0.9994 0.0350
vn 0.1852 0.9549 0.2323
vn -0.3351 0.9317 0.1400
vn -0.0006 1.0000 -0.0054
vn -0.0007 0.9999 0.0128
vn -0.0689 0.9812 0.1804
vn 0.0000 0.9999 0.0110
vn 0.0006 0.9999 0.0115
vn -0.1727 0.9844 0.0331
vn -0.1559 0.9797 0.1261
vn -0.1302 0.9906 0.0422
vn 0.3235 0.9422 -0.0870
vn -0.1230 0.9922 0.0215
vn 0.0014 1.0000 0.0099
vn 0.0003 0.9999 0.0109
vn -0.1874 0.9749 -0.1200
vn -0.1872 0.9823 -0.0058
vn -0.1373 0.9893 0.0493
vn -0.0427 0.9979 -0.0479
vn -0.0954 0.9943 0.0470
vn -0.0734 0.9970 0.0235
vn 0.0009 1.0000 0.0062
vn -0.0806 0.9962 0.0336
vn -0.1012 0.9927 0.0655
vn -0.0109 0.9998 -0.0144
vn -0.0308 0.9995 0.0068
vn -0.0473 0.9988 0.0083
vn -0.1320 0.9913 0.0012
vn -0.0657 0.9970 -0.0399
vn -0.0317 0.9994 0.0100
vn -0.0492 0.9988 0.0033
vn -0.0316 0.9994 0.0100
vn -0.0255 0.9996 0.0154
vn -0.0288 0.9995 0.0120
vn -0.0068 1.0000 -0.0047
vn 0.0103 0.9999 0.0033
vn 0.0076 1.0000 0.0031
vn 0.0006 1.0000 0.0059
vn 0.0036 1.0000 0.0009
vn 0.0377 0.9992 -0.0113
vn 0.0103 0.9998 -0.0196
vn 0.0038 0.9997 -0.0234
vn 0.0366 0.9993 -0.0084
vn 0.0522 0.9986 0.0103
vn 0.0148 0.9999 -0.0065
vn 0.0179 0.9997 -0.0157
vn 0.1092 0.9940 0.0083
vn 0.0023 1.0000 0.0047
vn 0.0850 0.9947 0.0577
vn 0.2544 0.9567 0.1412
vn 0.0288 0.9996 -0.0040
vn 0.1869 0.9824 -0.0008
vn 0.0074 0.9999 -0.0136
vn 0.2302 0.9715 -0.0565
vn 0.2442 0.9661 -0.0837
vn 0.0043 0.9999 -0.0097
vn 0.0348 0.9994 0.0027
vn 0.0097 0.9999 -0.0141
vn 0.0576 0.9967 -0.0566
vn 0.0309 0.9982 -0.0516
vn 0.0004 1.0000 0.0039
vn 0.0004 1.0000 0.0014
vn 0.0213 0.9988 -0.0438
vn 0.0078 0.9999 -0.0137
vn 0.0060 1.0000 -0.0066
vn 0.0102 0.9998 -0.0192
vn 0.0002 1.0000 0.0096
vn 0.0122 0.9987 0.0493
vn 0.0869 0.9945 -0.0592
vn 0.0221 0.9926 -0.1193
vn 0.0313 0.9957 -0.0875
vn 0.0012 1.0000 0.0014
vn 0.0007 1.0000 0.0006
vn 0.0005 1.0000 0.0004
vn -0.0078 1.0000 0.0005
vn -0.0120 0.9999 -0.0015
vn -0.0116 0.9999 -0.0025
vn -0.0274 0.9996 0.0057
vn -0.0192 0.9998 0.0027
vn -0.0156 0.9999 -0.0022
vn -0.0495 0.9792 0.1966
vn -0.0108 0.9998 -0.0161
vn -0.0143 0.9998 -0.0158
vn 0.0049 0.9925 0.1222
vn -0.0089 0.9978 0.0651
vn -0.0007 1.0000 -0.0038
vn 0.0017 0.9990 0.0449
vn 0.1281 0.9765 0.1736
vn -0.0460 0.9705 0.2367
vn -0.0075 0.9991 0.0410
vn -0.0004 1.0000 -0.0047
vn 0.0206 0.9965 0.0804
vn 0.0005 0.9999 0.0114
vn 0.0011 0.9999 0.0145
vn -0.0318 0.9743 0.2231
vn 0.0441 0.9603 -0.2754
vn -0.0245 0.9978 0.0621
vn -0.0006 1.0000 -0.0056
vn 0.0002 1.0000 -0.0087
vn 0.0175 0.9996 0.0205
vn 0.0003 0.9999 0.0107
vn -0.0011 0.9969 -0.0790
vn -0.1247 0.9866 0.1053
vn 0.1324 0.9844 0.1162
vn 0.0009 1.0000 -0.0086
vn -0.0016 1.0000 0.0068
vn -0.0235 0.9956 0.0905
vn 0.0092 0.9996 -0.0266
vn 0.0009 0.9999 -0.0100
vn -0.1016 0.9904 0.0940
vn 0.0061 0.9999 -0.0154
vn 0.0014 1.0000 0.0043
vn -0.1298 0.9906 0.0420
vn -0.1234 0.9922 0.0173
vn -0.1369 0.9891 0.0547
vn 0.0019 0.9998 -0.0194
vn -0.0019 1.0000 0.0076
vn -0.1955 0.9807 0.0028
vn -0.0861 0.9963 0.0033
vn 0.0063 0.9999 -0.0157
vn -0.0022 1.0000 0.0070
vn -0.0568 0.9980 0.0277
vn -0.0742 0.9969 0.0256
vn -0.0815 0.9966 0.0154
vn -0.0826 0.9961 0.0297
vn 0.0006 1.0000 0.0026
vn -0.0506 0.9986 0.0146
vn -0.0867 0.9960 0.0224
vn -0.0498 0.9988 0.0026
vn -0.0151 0.9994 -0.0305
vn 0.0033 0.9998 -0.0219
vn -0.0379 0.9992 0.0139
vn -0.0026 1.0000 -0.0020
vn -0.0430 0.9991 0.0040
vn -0.0412 0.9991 0.0083
vn -0.0363 0.9993 0.0034
vn -0.0076 0.9999 -0.0070
vn -0.0360 0.9993 0.0089
vn -0.0302 0.9995 0.0031
vn -0.0277 0.9996 0.0060
vn -0.0379 0.9992 -0.0133
vn -0.0231 0.9997 0.0015
vn 0.0008 1.0000 0.0058
vn -0.0070 1.0000 -0.0053
vn -0.0368 0.9993 -0.0023
vn -0.0221 0.9997 0.0052
vn -0.0199 0.9998 0.0098
vn -0.0050 1.0000 -0.0045
vn 0.0006 1.0000 0.0023
vn 0.0062 1.0000 -0.0070
vn 0.0007 0.9999 0.0112
vn 0.0034 1.0000 -0.0089
vn 0.0002 1.0000 0.0095
vn 0.0000 -1.0000 -0.0039
vn 0.0019 1.0000 0.0014
vn 0.0000 -1.0000 0.0000
vn 0.0008 1.0000 0.0008
vn 0.0010 1.0000 0.0015
vn 0.0005 1.0000 0.0006
vn -0.0002 -1.0000 -0.0000
vn 0.1143 0.9798 0.1639
vn 0.0179 0.9985 0.0515
vn 0.0080 0.9997 -0.0227
vn 0.0195 0.9981 0.0591
vn 0.0361 0.9993 -0.0077
vn 0.0101 0.9998 -0.0154
vn 0.0045 0.9999 -0.0102
vn 0.0186 0.9944 0.1044
vn 0.0514 0.9959 -0.0739
vn 0.0053 0.9999 -0.0102
vn 0.0043 1.0000 0.0067
vn 0.0178 0.9985 0.0513
vn 0.0069 0.9923 0.1234
vn 0.0754 0.9967 -0.0307
vn 0.1310 0.9897 0.0576
vn 0.2354 0.9581 -0.1634
vn 0.2584 0.9642 -0.0593
vn 0.0663 0.9972 -0.0356
vn 0.0705 0.9974 -0.0149
vn -0.0831 0.9933 0.0809
vn 0.0052 1.0000 -0.0074
vn 0.0211 0.9993 0.0293
vn 0.0210 0.9996 0.0193
vn 0.0918 0.9958 -0.0061
vn -0.0565 0.9983 -0.0105
vn -0.0510 0.9986 -0.0160
vn 0.0116 0.9997 0.0235
vn 0.0223 0.9998 -0.0006
vn 0.0275 0.9996 -0.0036
vn 0.0184 0.9998 -0.0016
vn 0.0028 1.0000 0.0049
vn 0.0042 1.0000 0.0010
vn 0.0117 0.9999 0.0020
vn 0.0094 1.0000 0.0010
vn 0.0087 1.0000 0.0016
vn 0.0088 1.0000 0.0025
vn 0.0114 0.9999 0.0016
vn 0.0030 1.0000 0.0016
vn 0.0045 1.0000 0.0024
vn 0.0076 1.0000 0.0020
vn 0.0074 1.0000 0.0016
vn -0.0059 0.9999 -0.0108
vn 0.3279 0.6197 0.7131
vn 0.6463 0.4802 -0.5931
vn 0.8239 0.4782 -0.3042
vn 0.7857 0.6093 -0.1070
vn 0.5703 0.8192 0.0598
vn 0.6543 0.7519 0.0808
vn 0.5690 0.6878 -0.4508
vn -0.2510 0.9657 0.0657
vn -0.5336 0.8052 0.2589
vn 0.1028 0.9846 -0.1417
vn -0.4730 0.8429 0.2566
vn -0.6834 0.7188 0.1277
vn -0.3867 0.4665 0.7955
vn 0.2412 0.9644 -0.1083
vn -0.5592 0.6712 0.4866
vn -0.7423 0.3812 0.5510
vn 0.1746 0.9196 -0.3519
vn -0.0938 0.6276 0.7728
vn -0.0107 0.9998 -0.0156
vn 0.2671 0.6675 0.6951
vn 0.6462 0.4789 -0.5942
vn 0.0875 0.5978 0.7968
vn 0.7825 0.4681 -0.4106
vn -0.3035 0.7137 0.6312
vn 0.8026 0.5266 0.2802
vn 0.5823 0.8092 -0.0779
vn -0.2840 0.9529 0.1060
vn -0.5188 0.8546 -0.0199
vn -0.5261 0.8504 -0.0012
vn -0.7399 0.4475 0.5022
vn -0.1478 0.9752 0.1645
vn 0.0834 0.9809 -0.1757
vn -0.6657 0.5980 0.4464
vn -0.2716 0.8968 0.3494
vn -0.7733 0.4452 0.4514
vn -0.5538 0.4719 0.6861
f 85//1 84//1 121//1
f 96//2 100//2 132//2
f 97//3 96//3 132//3
f 99//4 98//4 97//4
f 104//5 82//5 99//5
f 107//6 106//6 119//6
f 132//7 100//7 608//7
f 104//8 99//8 607//8
f 105//9 104//9 607//9
f 119//10 106//10 606//10
f 108//11 107//11 126//11
f 120//12 121//12 113//12
f 122//13 85//13 121//13
f 122//14 90//14 85//14
f 91//15 90//15 122//15
f 126//16 119//16 137//16
f 113//17 112//17 145//17
f 139//18 120//18 113//18
f 122//19 121//19 146//19
f 132//20 608//20 131//20
f 133//21 132//21 155//21
f 108//22 126//22 149//22
f 139//23 113//23 145//23
f 120//24 139//24 146//24
f 148//25 131//25 128//25
f 142//26 132//26 131//26
f 155//27 132//27 142//27
f 146//28 139//28 157//28
f 128//29 127//29 147//29
f 605//30 131//30 148//30
f 605//31 142//31 131//31
f 165//32 136//32 606//32
f 138//33 149//33 176//33
f 145//34 138//34 160//34
f 147//35 146//35 151//35
f 142//36 605//36 158//36
f 135//37 143//37 184//37
f 166//38 149//38 144//38
f 150//39 149//39 166//39
f 176//40 149//40 150//40
f 151//41 157//41 167//41
f 147//42 151//42 163//42
f 148//43 147//43 163//43
f 169//44 142//44 158//44
f 189//45 155//45 142//45
f 156//46 165//46 170//46
f 157//47 145//47 177//47
f 158//48 163//48 168//48
f 150//49 166//49 172//49
f 173//50 176//50 150//50
f 171//51 166//51 170//51
f 161//52 167//52 178//52
f 169//53 168//53 188//53
f 186//54 172//54 171//54
f 202//55 176//55 173//55
f 190//56 189//56 212//56
f 185//57 206//57 195//57
f 186//58 185//58 196//58
f 173//59 186//59 197//59
f 189//60 188//60 212//60
f 196//61 185//61 214//61
f 188//62 187//62 219//62
f 206//63 164//63 259//63
f 232//64 206//64 602//64
f 196//65 224//65 215//65
f 197//66 196//66 215//66
f 207//67 197//67 215//67
f 226//68 212//68 246//68
f 602//69 206//69 231//69
f 248//70 214//70 232//70
f 233//71 224//71 214//71
f 234//72 207//72 215//72
f 240//73 218//73 254//73
f 219//74 240//74 241//74
f 214//75 248//75 233//75
f 249//76 215//76 224//76
f 249//77 234//77 215//77
f 254//78 217//78 264//78
f 219//79 241//79 245//79
f 265//80 226//80 246//80
f 228//81 226//81 265//81
f 255//82 232//82 231//82
f 262//83 233//83 248//83
f 240//84 254//84 256//84
f 241//85 240//85 256//85
f 250//86 249//86 280//86
f 252//87 251//87 281//87
f 264//88 253//88 263//88
f 256//89 254//89 264//89
f 245//90 241//90 274//90
f 263//91 252//91 272//91
f 256//92 264//92 273//92
f 228//93 265//93 266//93
f 278//94 259//94 599//94
f 252//95 281//95 271//95
f 273//96 264//96 296//96
f 290//97 265//97 246//97
f 279//98 280//98 270//98
f 271//99 281//99 302//99
f 274//100 273//100 297//100
f 598//101 279//101 288//101
f 272//102 271//102 303//102
f 263//103 272//103 304//103
f 296//104 263//104 304//104
f 318//105 295//105 278//105
f 300//106 268//106 295//106
f 301//107 288//107 300//107
f 302//108 279//108 598//108
f 297//109 296//109 305//109
f 301//110 300//110 318//110
f 324//111 301//111 318//111
f 319//112 301//112 314//112
f 304//113 303//113 597//113
f 329//114 302//114 319//114
f 303//115 302//115 329//115
f 345//116 318//116 278//116
f 319//117 325//117 339//117
f 305//118 597//118 350//118
f 339//119 324//119 323//119
f 339//120 325//120 324//120
f 333//121 329//121 340//121
f 350//122 597//122 333//122
f 350//123 333//123 340//123
f 349//124 350//124 340//124
f 555//125 547//125 546//125
f 541//126 559//126 545//126
f 542//127 554//127 543//127
f 557//128 542//128 44//128
f 52//129 557//129 44//129
f 534//130 613//130 541//130
f 546//131 522//131 539//131
f 543//132 538//132 537//132
f 543//133 537//133 528//133
f 543//134 528//134 536//134
f 612//135 545//135 526//135
f 535//136 612//136 526//136
f 534//137 541//137 535//137
f 533//138 540//138 534//138
f 539//139 521//139 529//139
f 44//140 542//140 527//140
f 545//141 52//141 526//141
f 521//142 522//142 83//142
f 529//143 521//143 530//143
f 536//144 528//144 527//144
f 52//145 44//145 54//145
f 526//146 52//146 60//146
f 534//147 524//147 523//147
f 522//148 531//148 107//148
f 519//149 529//149 520//149
f 538//150 519//150 33//150
f 44//151 527//151 43//151
f 525//152 53//152 524//152
f 530//153 74//153 77//153
f 60//154 54//154 63//154
f 53//155 60//155 67//155
f 53//156 67//156 524//156
f 531//157 106//157 107//157
f 522//158 107//158 83//158
f 74//159 61//159 77//159
f 63//160 54//160 62//160
f 60//161 63//161 98//161
f 524//162 67//162 73//162
f 609//163 523//163 73//163
f 520//164 77//164 84//164
f 63//165 96//165 98//165
f 82//166 67//166 98//166
f 74//167 83//167 112//167
f 77//168 61//168 113//168
f 33//169 84//169 85//169
f 90//170 33//170 85//170
f 610//171 90//171 91//171
f 100//172 610//172 91//172
f 73//173 82//173 105//173
f 83//174 107//174 108//174
f 61//175 112//175 113//175
f 105//176 82//176 104//176
f 609//177 105//177 134//177
f 84//178 113//178 121//178
f 100//179 91//179 608//179
f 99//180 97//180 133//180
f 99//181 133//181 607//181
f 107//182 119//182 126//182
f 112//183 108//183 138//183
f 91//184 122//184 128//184
f 608//185 91//185 128//185
f 97//186 132//186 133//186
f 105//187 607//187 143//187
f 119//188 606//188 136//188
f 119//189 136//189 137//189
f 112//190 138//190 145//190
f 121//191 120//191 146//191
f 122//192 146//192 127//192
f 128//193 122//193 127//193
f 608//194 128//194 131//194
f 607//195 133//195 143//195
f 105//196 143//196 134//196
f 137//197 136//197 156//197
f 126//198 137//198 144//198
f 149//199 126//199 144//199
f 108//200 149//200 138//200
f 133//201 155//201 143//201
f 135//202 134//202 143//202
f 137//203 156//203 144//203
f 139//204 145//204 157//204
f 127//205 146//205 147//205
f 128//206 147//206 148//206
f 143//207 155//207 184//207
f 606//208 604//208 164//208
f 156//209 136//209 165//209
f 146//210 157//210 151//210
f 605//211 148//211 158//211
f 604//212 599//212 164//212
f 144//213 156//213 159//213
f 166//214 144//214 159//214
f 148//215 163//215 158//215
f 189//216 142//216 169//216
f 606//217 164//217 165//217
f 156//218 170//218 159//218
f 138//219 176//219 160//219
f 145//220 160//220 177//220
f 158//221 168//221 169//221
f 184//222 155//222 189//222
f 135//223 184//223 191//223
f 166//224 159//224 170//224
f 157//225 177//225 178//225
f 167//226 157//226 178//226
f 168//227 163//227 183//227
f 165//228 164//228 206//228
f 165//229 206//229 170//229
f 172//230 166//230 171//230
f 150//231 172//231 186//231
f 173//232 150//232 186//232
f 160//233 176//233 202//233
f 160//234 202//234 177//234
f 161//235 178//235 179//235
f 168//236 183//236 187//236
f 168//237 187//237 188//237
f 189//238 190//238 184//238
f 191//239 184//239 213//239
f 170//240 206//240 185//240
f 171//241 170//241 185//241
f 186//242 171//242 185//242
f 187//243 183//243 204//243
f 169//244 188//244 189//244
f 205//245 184//245 190//245
f 213//246 184//246 205//246
f 186//247 196//247 197//247
f 218//248 203//248 601//248
f 190//249 226//249 205//249
f 195//250 206//250 232//250
f 185//251 195//251 214//251
f 196//252 214//252 224//252
f 204//253 218//253 240//253
f 187//254 204//254 219//254
f 188//255 219//255 212//255
f 190//256 212//256 226//256
f 164//257 599//257 259//257
f 195//258 232//258 214//258
f 601//259 217//259 254//259
f 218//260 601//260 254//260
f 204//261 240//261 219//261
f 206//262 259//262 231//262
f 602//263 231//263 232//263
f 212//264 219//264 245//264
f 205//265 226//265 228//265
f 205//266 228//266 213//266
f 249//267 224//267 233//267
f 253//268 225//268 239//268
f 217//269 253//269 264//269
f 212//270 245//270 246//270
f 248//271 232//271 255//271
f 249//272 233//272 262//272
f 234//273 249//273 250//273
f 239//274 252//274 263//274
f 253//275 239//275 263//275
f 246//276 245//276 289//276
f 262//277 248//277 255//277
f 249//278 262//278 270//278
f 249//279 270//279 280//279
f 241//280 256//280 274//280
f 268//281 231//281 259//281
f 255//282 231//282 268//282
f 262//283 255//283 268//283
f 264//284 263//284 296//284
f 245//285 274//285 289//285
f 246//286 289//286 290//286
f 295//287 259//287 278//287
f 268//288 259//288 295//288
f 288//289 262//289 268//289
f 270//290 262//290 288//290
f 272//291 252//291 271//291
f 256//292 273//292 274//292
f 266//293 265//293 290//293
f 279//294 270//294 288//294
f 273//295 296//295 297//295
f 288//296 268//296 300//296
f 281//297 279//297 302//297
f 272//298 303//298 304//298
f 289//299 274//299 334//299
f 598//300 288//300 301//300
f 271//301 302//301 303//301
f 274//302 297//302 334//302
f 300//303 295//303 318//303
f 598//304 301//304 319//304
f 302//305 598//305 319//305
f 296//306 304//306 305//306
f 297//307 305//307 334//307
f 314//308 301//308 324//308
f 303//309 333//309 597//309
f 304//310 597//310 305//310
f 324//311 318//311 323//311
f 314//312 325//312 319//312
f 303//313 329//313 333//313
f 323//314 318//314 345//314
f 325//315 314//315 324//315
f 319//316 339//316 329//316
f 305//317 350//317 334//317
f 339//318 323//318 345//318
f 329//319 339//319 340//319
f 340//320 339//320 349//320
f 349//321 339//321 345//321
f 38//322 42//322 446//322 443//322
f 49//322 48//322 447//322 448//322
f 416//322 417//322 502//322 509//322
f 418//322 419//322 511//322 510//322
f 368//322 356//322 479//322 482//322
f 22//322 627//322 670//322 430//322
f 36//322 30//322 437//322 442//322
f 102//322 101//322 466//322 467//322
f 410//322 411//322 505//322 504//322
f 412//322 413//322 507//322 506//322
f 356//322 357//322 480//322 479//322
f 72//322 71//322 456//322 457//322
f 18//322 17//322 424//322 425//322
f 23//322 27//322 434//322 431//322
f 26//322 29//322 436//322 433//322
f 366//322 382//322 488//322 475//322
f 66//322 65//322 454//322 455//322
f 76//322 95//322 461//322 458//322
f 17//322 20//322 427//322 424//322
f 398//322 399//322 498//322 493//322
f 101//322 118//322 470//322 466//322
f 385//322 366//322 475//322 490//322
f 407//322 408//322 500//322 499//322
f 29//322 28//322 435//322 436//322
f 413//322 407//322 499//322 507//322
f 21//322 13//322 423//322 429//322
f 30//322 45//322 428//322 437//322
f 41//322 49//322 448//322 445//322
f 411//322 415//322 508//322 505//322
f 357//322 343//322 478//322 480//322
f 27//322 26//322 433//322 434//322
f 390//322 391//322 492//322 491//322
f 93//322 102//322 467//322 464//322
f 118//322 111//322 469//322 470//322
f 399//322 394//322 494//322 498//322
f 408//322 402//322 497//322 500//322
f 81//322 76//322 458//322 459//322
f 65//322 72//322 457//322 454//322
f 24//322 23//322 431//322 432//322
f 403//322 398//322 493//322 501//322
f 31//322 35//322 441//322 438//322
f 388//322 385//322 490//322 489//322
f 88//322 94//322 465//322 462//322
f 34//322 39//322 444//322 440//322
f 154//322 117//322 514//322 471//322
f 111//322 154//322 471//322 469//322
f 58//322 66//322 455//322 451//322
f 415//322 416//322 509//322 508//322
f 395//322 390//322 491//322 495//322
f 417//322 418//322 510//322 502//322
f 20//322 19//322 426//322 427//322
f 28//322 32//322 439//322 435//322
f 391//322 388//322 489//322 492//322
f 42//322 41//322 445//322 446//322
f 409//322 410//322 504//322 503//322
f 19//322 24//322 432//322 426//322
f 80//322 103//322 463//322 460//322
f 45//322 22//322 430//322 428//322
f 379//322 380//322 485//322 484//322
f 94//322 93//322 464//322 465//322
f 39//322 38//322 443//322 444//322
f 48//322 51//322 450//322 447//322
f 402//322 403//322 501//322 497//322
f 103//322 88//322 462//322 463//322
f 32//322 31//322 438//322 439//322
f 375//322 376//322 483//322 481//322
f 380//322 375//322 481//322 485//322
f 35//322 34//322 440//322 441//322
f 382//322 379//322 484//322 488//322
f 59//322 58//322 451//322 452//322
f 419//322 412//322 506//322 511//322
f 376//322 351//322 476//322 483//322
f 367//322 368//322 482//322 477//322
f 71//322 81//322 459//322 456//322
f 51//322 50//322 449//322 450//322
f 394//322 395//322 495//322 494//322
f 406//322 409//322 503//322 518//322
f 371//322 367//322 477//322 517//322
f 117//322 130//322 472//322 514//322
f 95//322 80//322 460//322 461//322
f 351//322 371//322 517//322 476//322
f 480//322 478//322 551//322 553//322
f 481//322 483//322 563//322 561//322
f 476//322 517//322 614//322 549//322
f 503//322 504//322 588//322 587//322
f 455//322 454//322 322//322 320//322
f 465//322 464//322 294//322 292//322
f 511//322 506//322 590//322 595//322
f 469//322 471//322 267//322 276//322
f 501//322 493//322 577//322 585//322
f 493//322 498//322 582//322 577//322
f 458//322 461//322 306//322 313//322
f 497//322 501//322 585//322 581//322
f 452//322 451//322 328//322 327//322
f 500//322 497//322 581//322 584//322
f 430//323 670//323 429//323 370//323 633//323 369//323
f 454//322 457//322 315//322 322//322
f 448//322 447//322 338//322 337//322
f 456//322 459//322 309//322 317//322
f 450//322 449//322 336//322 335//322
f 433//322 436//322 359//322 362//322
f 466//322 470//322 275//322 287//322
f 425//322 424//322 387//322 386//322
f 442//322 437//322 358//322 348//322
f 490//322 475//322 548//322 573//322
f 431//322 434//322 361//322 365//322
f 483//322 476//322 549//322 563//322
f 470//322 469//322 276//322 275//322
f 444//322 443//322 347//322 346//322
f 510//322 511//322 595//322 594//322
f 464//322 467//322 286//322 294//322
f 424//322 427//322 377//322 387//322
f 517//322 477//322 550//322 614//322
f 437//324 428//324 374//324 688//324 358//324
f 447//322 450//322 335//322 338//322
f 484//322 485//322 565//322 564//322
f 506//322 507//322 591//322 590//322
f 462//322 465//322 292//322 299//322
f 505//322 508//322 592//322 589//322
f 509//322 502//322 586//322 593//322
f 445//322 448//322 337//322 342//322
f 434//322 433//322 362//322 361//322
f 471//322 514//322 600//322 267//322
f 467//322 466//322 287//322 286//322
f 436//322 435//322 360//322 359//322
f 460//322 463//322 298//322 307//322
f 498//322 494//322 578//322 582//322
f 504//322 505//322 589//322 588//322
f 518//322 503//322 587//322 615//322
f 440//322 444//322 346//322 353//322
f 432//322 431//322 365//322 364//322
f 443//322 446//322 341//322 347//322
f 495//322 491//322 575//322 579//322
f 477//322 482//322 562//322 550//322
f 482//322 479//322 552//322 562//322
f 499//322 500//322 584//322 583//322
f 435//322 439//322 354//322 360//322
f 463//322 462//322 299//322 298//322
f 427//322 426//322 378//322 377//322
f 438//322 441//322 352//322 355//322
f 446//322 445//322 342//322 341//322
f 491//322 492//322 576//322 575//322
f 494//322 495//322 579//322 578//322
f 492//322 489//322 572//322 576//322
f 428//325 430//325 369//325 667//325 374//325
f 479//322 480//322 553//322 552//322
f 451//322 455//322 320//322 328//322
f 489//322 490//322 573//322 572//322
f 488//322 484//322 564//322 569//322
f 429//322 423//322 389//322 370//322
f 459//322 458//322 313//322 309//322
f 426//322 432//322 364//322 378//322
f 461//322 460//322 307//322 306//322
f 514//322 472//322 247//322 600//322
f 439//322 438//322 355//322 354//322
f 441//322 440//322 353//322 352//322
f 507//322 499//322 583//322 591//322
f 475//322 488//322 569//322 548//322
f 485//322 481//322 561//322 565//322
f 508//322 509//322 593//322 592//322
f 502//322 510//322 594//322 586//322
f 457//322 456//322 317//322 315//322
f 112//326 83//326 108//326
f 609//327 73//327 105//327
f 82//328 98//328 99//328
f 98//329 96//329 97//329
f 96//330 43//330 100//330
f 43//331 610//331 100//331
f 610//332 33//332 90//332
f 33//333 519//333 84//333
f 84//334 77//334 113//334
f 73//335 67//335 82//335
f 63//336 62//336 96//336
f 96//337 62//337 43//337
f 519//338 520//338 84//338
f 61//339 74//339 112//339
f 609//340 533//340 523//340
f 73//341 523//341 524//341
f 67//342 60//342 98//342
f 43//343 527//343 610//343
f 527//344 33//344 610//344
f 60//345 52//345 54//345
f 54//346 44//346 62//346
f 62//347 44//347 43//347
f 527//348 528//348 33//348
f 528//349 537//349 33//349
f 520//350 530//350 77//350
f 521//351 83//351 74//351
f 53//352 526//352 60//352
f 537//353 538//353 33//353
f 529//354 530//354 520//354
f 530//355 521//355 74//355
f 534//356 525//356 524//356
f 525//357 535//357 53//357
f 538//358 529//358 519//358
f 523//359 533//359 534//359
f 525//360 534//360 535//360
f 53//361 535//361 526//361
f 527//362 542//362 536//362
f 538//363 539//363 529//363
f 539//364 522//364 521//364
f 536//365 542//365 543//365
f 538//366 544//366 539//366
f 535//367 541//367 612//367
f 543//368 544//368 538//368
f 539//369 555//369 546//369
f 534//370 540//370 613//370
f 612//371 541//371 545//371
f 545//372 557//372 52//372
f 554//373 544//373 543//373
f 544//374 555//374 539//374
f 546//375 547//375 522//375
f 541//376 613//376 559//376
f 557//377 554//377 542//377
f 559//378 556//378 545//378
f 613//379 558//379 559//379
f 559//380 558//380 556//380
f 556//381 557//381 545//381
f 670//322 627//322 21//322 429//322
f 1//382 5//382 2//382
f 3//383 16//383 4//383
f 4//384 16//384 5//384
f 5//385 16//385 6//385
f 7//386 12//386 16//386
f 6//387 25//387 8//387
f 9//388 11//388 12//388
f 15//389 11//389 10//389
f 18//390 15//390 14//390
f 11//391 25//391 16//391
f 123//392 609//392 134//392
f 36//393 55//393 37//393
f 55//394 46//394 40//394
f 55//395 56//395 46//395
f 46//396 56//396 47//396
f 123//397 134//397 135//397
f 55//398 109//398 737//398 56//398
f 125//399 729//399 693//399 124//399 599//399
f 68//400 69//400 64//400
f 68//401 702//401 715//401 69//401
f 69//402 78//402 70//402
f 78//403 140//403 75//403
f 140//404 86//404 79//404
f 140//405 110//405 86//405
f 86//406 92//406 87//406
f 140//407 115//407 110//407
f 140//408 162//408 115//408
f 230//409 213//409 229//409
f 220//410 731//410 728//410 664//410
f 153//411 130//411 129//411
f 182//412 153//412 141//412
f 153//413 154//413 130//413
f 220//414 755//414 731//414
f 175//415 182//415 152//415
f 258//416 685//416 689//416
f 242//417 221//417 140//417
f 257//418 258//418 723//418
f 229//419 228//419 266//419
f 194//420 175//420 174//420
f 373//421 714//421 760//421
f 291//422 750//422 743//422 640//422 229//422
f 600//423 247//423 267//423
f 275//424 258//424 257//424
f 308//425 266//425 290//425
f 140//426 198//426 180//426
f 193//427 194//427 181//427
f 275//428 257//428 292//428
f 201//429 193//429 192//429
f 373//430 753//430 734//430
f 290//431 289//431 334//431
f 257//432 672//432 671//432 306//432
f 298//433 257//433 306//433
f 286//434 275//434 292//434
f 308//435 290//435 625//435 749//435 700//435
f 200//436 244//436 201//436
f 201//437 244//437 656//437 691//437
f 309//438 635//438 618//438
f 306//439 671//439 635//439 309//439
f 315//440 674//440 620//440 326//440
f 345//441 278//441 669//441 622//441
f 315//442 326//442 320//442
f 320//442 326//442 327//442
f 326//443 704//443 738//443 341//443
f 223//444 237//444 332//444
f 326//445 341//445 337//445
f 335//446 326//446 337//446
f 374//447 660//447 626//447
f 341//448 735//448 742//448 346//448
f 346//449 742//449 736//449 352//449
f 363//450 692//450 630//450
f 401//451 657//451 629//451
f 359//452 717//452 730//452 361//452
f 401//453 764//453 748//453 657//453
f 361//454 730//454 739//454 364//454
f 377//455 716//455 765//455 386//455
f 364//456 739//456 716//456 377//456
f 401//457 687//457 658//457
f 570//458 686//458 641//458
f 570//459 645//459 642//459
f 587//460 655//460 683//460 615//460
f 570//461 678//461 666//461
f 577//462 578//462 568//462
f 579//463 575//463 568//463
f 282//464 269//464 634//464 720//464 745//464
f 581//465 568//465 690//465 696//465 694//465
f 570//466 666//466 694//466 747//466
f 575//467 576//467 572//467
f 575//468 572//468 568//468
f 571//469 733//469 756//469
f 566//470 679//470 637//470 567//470
f 532//471 571//471 756//471 699//471
f 558//472 574//472 556//472
f 563//473 549//473 561//473
f 574//474 554//474 557//474
f 614//475 550//475 549//475
f 560//476 555//476 544//476
f 560//477 544//477 554//477
f 550//478 552//478 551//478
f 561//479 665//479 651//479 548//479
f 550//480 649//480 648//480 549//480
f 548//481 651//481 673//481
f 549//482 648//482 644//482
f 293//483 285//483 284//483
f 293//484 316//484 285//484
f 531//485 125//485 106//485
f 310//486 311//486 282//486
f 330//487 310//487 282//487
f 611//488 124//488 693//488 650//488
f 316//489 384//489 628//489 332//489
f 114//490 123//490 135//490
f 106//491 125//491 606//491
f 125//492 599//492 604//492
f 125//493 604//493 606//493
f 383//494 397//494 381//494
f 406//495 397//495 400//495
f 405//496 406//496 400//496
f 1//497 4//497 5//497
f 6//498 16//498 25//498
f 8//499 25//499 13//499
f 15//500 18//500 11//500
f 12//501 11//501 16//501
f 11//502 18//502 25//502
f 59//503 89//503 50//503
f 69//504 715//504 763//504 78//504
f 78//505 763//505 698//505 140//505
f 135//506 191//506 230//506
f 114//507 135//507 230//507
f 86//508 110//508 92//508
f 114//509 230//509 617//509 722//509 636//509
f 230//510 191//510 213//510
f 213//511 228//511 229//511
f 603//512 703//512 771//512 721//512 267//512
f 140//513 180//513 162//513
f 267//514 721//514 258//514
f 194//515 677//515 624//515 175//515
f 182//516 631//516 654//516 153//516
f 229//517 266//517 308//517
f 291//518 229//518 308//518
f 267//519 258//519 275//519
f 140//520 221//520 198//520
f 198//521 199//521 180//521
f 267//522 275//522 276//522
f 201//523 691//523 682//523 193//523
f 278//524 599//524 623//524 669//524
f 257//525 298//525 292//525
f 287//526 275//526 286//526
f 221//527 222//527 198//527
f 332//528 244//528 211//528
f 286//529 292//529 294//529
f 242//530 235//530 221//530
f 235//531 236//531 221//531
f 292//532 298//532 299//532
f 220//533 720//533 755//533
f 227//534 285//534 237//534
f 298//535 306//535 307//535
f 290//536 334//536 621//536 625//536
f 308//537 754//537 759//537
f 242//538 243//538 235//538
f 237//539 285//539 332//539
f 306//540 309//540 313//540
f 309//541 315//541 317//541
f 269//542 260//542 680//542 681//542
f 244//543 332//543 616//543 656//543
f 315//544 320//544 322//544
f 320//545 327//545 328//545
f 334//546 663//546 659//546
f 326//547 335//547 336//547
f 261//548 284//548 285//548
f 335//549 337//549 338//549
f 334//550 350//550 692//550 663//550
f 337//551 341//551 342//551
f 345//552 622//552 762//552 711//552
f 282//553 283//553 269//553
f 341//554 346//554 347//554
f 374//555 626//555 632//555
f 346//556 352//556 353//556
f 352//557 736//557 713//557 354//557
f 352//558 354//558 355//558
f 374//559 632//559 688//559
f 354//560 713//560 717//560 359//560
f 354//561 359//561 360//561
f 359//562 361//562 362//562
f 401//563 629//563 687//563
f 361//564 364//564 365//564
f 285//565 316//565 332//565
f 370//566 374//566 667//566 633//566
f 386//567 765//567 363//567 764//567 718//567
f 364//568 377//568 378//568
f 377//569 386//569 387//569
f 401//570 658//570 370//570 389//570
f 293//571 312//571 316//571
f 25//322 18//322 425//322 422//322
f 397//322 406//322 518//322 496//322
f 109//322 55//322 512//322 468//322
f 384//322 381//322 486//322 487//322
f 330//572 321//572 310//572
f 50//322 89//322 453//322 449//322
f 381//322 397//322 496//322 486//322
f 130//322 154//322 471//322 472//322
f 316//573 331//573 384//573
f 89//322 59//322 452//322 453//322
f 343//322 330//322 516//322 478//322
f 153//322 654//322 373//322 474//322 647//322 515//322
f 343//574 344//574 330//574
f 332//575 628//575 616//575
f 330//322 282//322 473//322 516//322
f 373//576 719//576 384//576 487//576 701//576 474//576
f 220//325 664//325 109//325 468//325 646//325 513//325
f 13//322 25//322 422//322 423//322
f 384//577 372//577 381//577
f 282//578 745//578 220//578 513//578 473//578
f 392//579 393//579 397//579
f 393//580 400//580 397//580
f 393//581 396//581 400//581
f 154//322 153//322 515//322 471//322
f 55//322 36//322 442//322 512//322
f 474//322 701//322 744//322 114//322
f 422//582 425//582 386//582 718//582 401//582
f 512//322 442//322 348//322 596//322
f 472//322 471//322 267//322 247//322
f 516//322 473//322 124//322 611//322
f 449//322 453//322 326//322 336//322
f 468//322 512//322 596//322 277//322
f 513//325 646//325 468//325 277//325 623//325 599//325
f 453//322 452//322 327//322 326//322
f 496//322 518//322 615//322 580//322
f 473//322 513//322 599//322 124//322
f 486//322 496//322 580//322 566//322
f 478//322 516//322 611//322 551//322
f 423//322 422//322 401//322 389//322
f 515//322 647//322 474//322 114//322 636//322 603//322
f 487//322 486//322 566//322 567//322
f 471//322 515//322 603//322 267//322
f 609//583 123//583 533//583
f 114//584 766//584 709//584 123//584
f 125//585 726//585 732//585
f 123//586 709//586 769//586 533//586
f 561//587 549//587 644//587 665//587
f 550//588 551//588 643//588 697//588 649//588
f 551//589 552//589 553//589
f 533//590 769//590 707//590 540//590
f 547//591 619//591 673//591 522//591
f 550//592 562//592 552//592
f 114//593 744//593 767//593
f 532//594 766//594 767//594 570//594
f 540//595 707//595 768//595 613//595
f 555//596 752//596 619//596 547//596
f 613//597 768//597 699//597 558//597
f 556//598 574//598 557//598
f 574//599 560//599 554//599
f 568//600 548//600 653//600 639//600
f 560//601 757//601 724//601 555//601
f 548//602 564//602 561//602
f 564//603 565//603 561//603
f 548//604 569//604 564//604
f 566//470 580//470 695//470 679//470
f 532//605 570//605 571//605
f 560//606 574//606 710//606 757//606
f 568//607 572//607 548//607
f 572//608 573//608 548//608
f 571//609 570//609 747//609 733//609
f 581//610 577//610 568//610
f 578//611 579//611 568//611
f 577//612 582//612 578//612
f 580//613 615//613 683//613 695//613
f 570//614 661//614 678//614
f 577//615 581//615 585//615
f 570//616 655//616 684//616
f 570//617 684//617 645//617
f 583//618 661//618 641//618 590//618
f 583//619 590//619 591//619
f 589//620 592//620 593//620
f 589//621 593//621 586//621
f 570//622 642//622 662//622
f 570//623 662//623 686//623
f 630//450 692//450 350//450 349//450
f 682//523 691//523 770//523 734//523
f 659//443 621//443 334//443
f 683//460 655//460 570//460
f 624//421 631//421 182//421 175//421
f 671//432 672//432 750//432 751//432
f 636//509 722//509 703//509 603//509
f 637//470 679//470 570//470
f 660//552 762//552 706//552
f 658//457 687//457 374//457 370//457
f 684//616 655//616 587//616 588//616
f 651//479 665//479 746//479
f 682//430 677//430 194//430 193//430
f 673//591 619//591 548//591
f 695//613 683//613 570//613
f 640//418 689//418 229//418
f 625//536 621//536 704//536 708//536
f 686//623 662//623 594//623 595//623
f 620//440 674//440 754//440 700//440
f 689//416 685//416 230//416 229//416
f 680//542 260//542 242//542
f 629//451 657//451 705//451 741//451
f 685//514 638//514 230//514
f 632//555 626//555 596//555 348//555
f 669//524 623//524 277//524
f 659//546 663//546 363//546 735//546 738//546
f 666//461 678//461 584//461 581//461
f 665//587 644//587 727//587 746//587
f 640//422 743//422 723//422
f 650//488 693//488 729//488 732//488
f 616//575 628//575 384//575 719//575 712//575
f 645//617 684//617 588//617 589//617
f 624//515 677//515 753//515 760//515
f 618//438 635//438 740//438 759//438
f 679//470 695//470 570//470
f 641//458 686//458 595//458 590//458
f 663//550 692//550 363//550
f 668//606 690//606 568//606
f 678//614 661//614 583//614 584//614
f 688//559 632//559 348//559 358//559
f 618//537 674//537 315//537 309//537
f 650//585 643//585 551//585 611//585
f 694//465 696//465 690//465 710//465
f 622//441 669//441 277//441
f 649//588 697//588 726//588 725//588
f 656//543 616//543 712//543 758//543
f 644//482 648//482 761//482 727//482
f 639//601 668//601 568//601
f 633//566 667//566 369//566
f 619//596 653//596 548//596
f 654//516 631//516 714//516 373//516
f 641//618 661//618 570//618
f 642//459 645//459 589//459 586//459
f 635//439 671//439 751//439 740//439
f 687//563 629//563 741//563 711//563 374//563
f 648//480 649//480 725//480 761//480
f 626//447 660//447 706//447 277//447 596//447
f 676//533 681//533 680//533 675//533
f 675//533 680//533 242//533
f 681//533 634//533 269//533
f 673//481 651//481 531//481 522//481
f 691//437 656//437 758//437 770//437
f 638//512 617//512 230//512
f 694//466 666//466 581//466
f 657//453 748//453 705//453
f 639//600 653//600 752//600 724//600
f 664//410 728//410 698//410 109//410
f 620//435 749//435 708//435 326//435
f 662//622 642//622 586//622 594//622
f 652//414 675//414 242//414 140//414
f 675//414 652//414 676//414
f 718//567 764//567 401//567
f 763//504 715//504 109//504
f 733//609 747//609 574//609
f 699//597 768//597 532//597
f 724//600 752//600 555//600
f 738//443 704//443 621//443 659//443
f 709//584 766//584 532//584
f 712//575 719//575 373//575
f 760//421 714//421 631//421 624//421
f 742//448 735//448 363//448
f 757//606 710//606 690//606 668//606
f 711//552 762//552 660//552 374//552
f 727//482 761//482 125//482 531//482
f 746//587 727//587 531//587
f 761//480 725//480 125//480
f 734//430 753//430 677//430 682//430
f 734//523 770//523 373//523
f 707//590 769//590 532//590
f 739//454 730//454 363//454
f 756//469 733//469 574//469 558//469
f 723//418 258//418 689//418 640//418
f 746//479 531//479 651//479
f 724//601 757//601 668//601 639//601
f 745//464 720//464 220//464
f 741//451 705//451 349//451 345//451
f 725//588 726//588 125//588
f 726//588 697//588 643//588
f 258//514 721//514 638//514 685//514
f 744//322 701//322 487//322 567//322
f 698//410 728//410 652//410 140//410
f 706//552 762//552 622//552 277//552
f 767//594 766//594 114//594
f 740//439 751//439 291//439
f 700//440 754//440 308//440
f 743//422 750//422 672//422
f 751//432 750//432 291//432
f 699//471 756//471 558//471
f 723//422 743//422 672//422 257//422
f 732//585 726//585 643//585 650//585
f 738//546 735//546 341//546
f 765//455 716//455 363//455
f 759//537 754//537 674//537 618//537
f 730//452 717//452 363//452
f 708//435 749//435 625//435
f 760//515 753//515 373//515
f 768//595 707//595 532//595
f 711//563 741//563 345//563
f 758//543 712//543 373//543
f 736//449 742//449 363//449
f 703//509 722//509 617//509
f 619//596 752//596 653//596
f 705//453 748//453 630//453 349//453
f 732//488 729//488 125//488
f 767//593 744//593 567//593 637//593 570//593
f 715//401 702//401 109//401
f 710//465 574//465 694//465
f 708//536 704//536 326//536
f 769//586 709//586 532//586
f 755//533 720//533 634//533 681//533 676//533
f 698//505 763//505 109//505
f 716//456 739//456 363//456
f 717//560 713//560 363//560
f 721//512 771//512 703//512 617//512 638//512
f 770//437 758//437 373//437
f 747//466 694//466 574//466
f 748//453 764//453 363//453 630//453
f 700//435 749//435 620//435
f 713//557 736//557 363//557
f 728//410 731//410 652//410
f 759//438 740//438 291//438 308//438
f 731//414 755//414 676//414 652//414
f 56//624 68//624 57//624
f 183//625 163//625 161//625
f 178//626 177//626 203//626
f 179//627 178//627 218//627
f 177//628 202//628 210//628
f 208//629 173//629 197//629
f 209//630 202//630 173//630
f 210//631 202//631 209//631
f 601//632 203//632 216//632
f 208//633 207//633 234//633
f 209//634 208//634 238//634
f 225//635 238//635 251//635
f 253//636 216//636 225//636
f 217//637 216//637 253//637
f 238//638 234//638 250//638
f 239//639 251//639 252//639
f 281//640 280//640 279//640
f 151//641 167//641 161//641
f 151//642 161//642 163//642
f 56//643 737//643 702//643 68//643
f 183//644 161//644 179//644
f 178//645 203//645 218//645
f 204//646 183//646 179//646
f 177//647 210//647 203//647
f 179//648 218//648 204//648
f 208//649 197//649 207//649
f 173//650 208//650 209//650
f 203//651 210//651 216//651
f 225//652 210//652 209//652
f 210//653 225//653 216//653
f 601//654 216//654 217//654
f 209//655 238//655 225//655
f 208//656 234//656 238//656
f 225//657 251//657 239//657
f 238//658 250//658 251//658
f 251//659 250//659 281//659
f 250//660 280//660 281//660
f 702//643 737//643 109//643
l 115 116
l 404 405
l 414 410
l 420 416
l 421 418
