%YAML 1.1
%TAG !u! tag:unity3d.com,2011:
--- !u!1045 &1
EditorBuildSettings:
  m_ObjectHideFlags: 0
  serializedVersion: 2
  m_Scenes:
  - enabled: 1
    path: Assets/Scenes/IntroScene.unity
  - enabled: 1
    path: Assets/Scenes/MenuScene.unity
  - enabled: 1
    path: Assets/Scenes/PersistObjectsScene.unity
  - enabled: 1
    path: Assets/Scenes/GameScene.unity
  - enabled: 1
    path: Assets/Scenes/PuzzleScenes/Puzzle0Scene.unity
  - enabled: 1
    path: Assets/Scenes/PuzzleScenes/Puzzle2Scene.unity
  - enabled: 1
    path: Assets/Scenes/PuzzleScenes/Puzzle3Scene.unity
  - enabled: 1
    path: Assets/Scenes/PuzzleScenes/Puzzle4Scene.unity
  - enabled: 1
    path: Assets/Scenes/CreditsScene.unity
  - enabled: 1
    path: Assets/Scenes/PuzzleScenes/TutorialScene.unity
