%YAML 1.1
%TAG !u! tag:unity3d.com,2011:
--- !u!21 &2100000
Material:
  serializedVersion: 6
  m_ObjectHideFlags: 0
  m_PrefabParentObject: {fileID: 0}
  m_PrefabInternal: {fileID: 0}
  m_Name: 'Light '
  m_Shader: {fileID: 203, guid: 0000000000000000f000000000000000, type: 0}
  m_ShaderKeywords: _ALPHAPREMULTIPLY_ON
  m_LightmapFlags: 4
  m_CustomRenderQueue: -1
  stringTagMap: {}
  m_SavedProperties:
    serializedVersion: 2
    m_TexEnvs:
    - first:
        name: <noninit>
      second:
        m_Texture: {fileID: 0}
        m_Scale: {x: 1, y: 1}
        m_Offset: {x: 0, y: 0}
    - first:
        name: _MainTex
      second:
        m_Texture: {fileID: 2800000, guid: f3e227f32440ae84695172b8575f3405, type: 3}
        m_Scale: {x: 1, y: 1}
        m_Offset: {x: 0, y: 0}
    m_Floats:
    - first:
        name: <noninit>
      second: 0
    - first:
        name: _InvFade
      second: 1
    m_Colors:
    - first:
        name: <noninit>
      second: {r: 0, g: 1.5386551e-34, b: 0, a: 1.5386477e-34}
    - first:
        name: _TintColor
      second: {r: 0.5, g: 0.5, b: 0.5, a: 0.5}
