%YAML 1.1
%TAG !u! tag:unity3d.com,2011:
--- !u!1001 &100100000
Prefab:
  m_ObjectHideFlags: 1
  serializedVersion: 2
  m_Modification:
    m_TransformParent: {fileID: 0}
    m_Modifications: []
    m_RemovedComponents: []
  m_ParentPrefab: {fileID: 0}
  m_RootGameObject: {fileID: 1190860791132788}
  m_IsPrefabParent: 1
--- !u!1 &1190860791132788
GameObject:
  m_ObjectHideFlags: 0
  m_PrefabParentObject: {fileID: 0}
  m_PrefabInternal: {fileID: 100100000}
  serializedVersion: 5
  m_Component:
  - component: {fileID: 4029652315586012}
  - component: {fileID: 114308386933014058}
  m_Layer: 0
  m_Name: Corridor
  m_TagString: Untagged
  m_Icon: {fileID: 0}
  m_NavMeshLayer: 0
  m_StaticEditorFlags: 0
  m_IsActive: 1
--- !u!4 &4029652315586012
Transform:
  m_ObjectHideFlags: 1
  m_PrefabParentObject: {fileID: 0}
  m_PrefabInternal: {fileID: 100100000}
  m_GameObject: {fileID: 1190860791132788}
  m_LocalRotation: {x: 0, y: 0, z: 0, w: 1}
  m_LocalPosition: {x: 0, y: 0, z: 0}
  m_LocalScale: {x: 1, y: 1, z: 1}
  m_Children: []
  m_Father: {fileID: 0}
  m_RootOrder: 0
  m_LocalEulerAnglesHint: {x: 0, y: 0, z: 0}
--- !u!114 &114308386933014058
MonoBehaviour:
  m_ObjectHideFlags: 1
  m_PrefabParentObject: {fileID: 0}
  m_PrefabInternal: {fileID: 100100000}
  m_GameObject: {fileID: 1190860791132788}
  m_Enabled: 1
  m_EditorHideFlags: 0
  m_Script: {fileID: 11500000, guid: e16e1daae906db843983f754a88fc715, type: 3}
  m_Name: 
  m_EditorClassIdentifier: 
  TilePrefab: {fileID: 114665625575712222, guid: 882a68cab87adc249928e3e67ee355ab,
    type: 2}
  WallPrefab: {fileID: 123962, guid: dca2ec261cb2cf949be2ca0148a958b7, type: 2}
  MovingLight: {fileID: 1414548825111046, guid: 68dbdd50ae1ff83429bd7e5a05b4de34,
    type: 2}
  lightCountPerCorridor: 4
  LightColours:
  - {r: 1, g: 0.4980392, b: 0.84200126, a: 1}
  - {r: 0.78431374, g: 0.49, b: 0.791, a: 1}
  - {r: 0.9607844, g: 0.07450981, b: 0.5568628, a: 1}
  - {r: 1, g: 0.816, b: 0.84200126, a: 1}
  - {r: 0, g: 1, b: 1, a: 1}
  - {r: 0.63529414, g: 0.8000001, b: 0.9960785, a: 1}
  Rooms:
  - {fileID: 0}
  - {fileID: 0}
  Length: 1
  Coordinates:
    x: 0
    z: 0
